1.66593
-5.5306e-08
-0.0173396
-7.05681e-09
-0.000891471
-7.76715e-10
-7.057e-05
-7.67816e-10
-6.76512e-06
7.26938e-11
-7.24227e-07
4.2542e-10
-8.24746e-08
-1.47939e-09
-1.08317e-08
-3.72914e-10
-6.82577e-10
-1.46169e-10
-2.65262e-09
-1.57433e-09
-5.5306e-08
1.42937
-7.69817e-09
-0.000667457
-1.96055e-09
-6.10514e-05
-1.7106e-09
-6.1218e-06
9.41147e-10
-6.60175e-07
-8.91873e-10
-7.30699e-08
1.08052e-10
-1.35381e-08
2.87981e-09
3.02441e-11
-2.03784e-09
5.02048e-09
2.06471e-09
1.15178e-09
-0.0173396
-7.69817e-09
0.556116
-1.15499e-09
-5.79453e-05
-2.31269e-09
-5.57756e-06
-8.60474e-09
-6.11783e-07
5.05387e-09
-4.38622e-08
1.23266e-09
2.31251e-08
-4.95643e-09
-3.78761e-08
1.88981e-08
2.40668e-08
1.98756e-09
8.41874e-09
-1.77506e-09
-7.05682e-09
-0.000667457
-1.155e-09
0.358995
1.28469e-09
-5.48666e-06
-3.81054e-09
-6.18717e-07
-2.88717e-08
-1.38934e-07
2.65911e-08
8.19435e-08
-9.32777e-09
2.38223e-08
-9.73865e-09
-7.21213e-08
5.90505e-08
5.13238e-08
-1.51773e-08
7.77162e-09
-0.000891471
-1.96055e-09
-5.79453e-05
1.28465e-09
0.266298
3.51089e-09
-4.35354e-07
-1.13029e-08
-1.83627e-07
-4.22008e-08
-1.06783e-07
3.49709e-08
1.05537e-07
-1.45634e-08
5.48025e-08
-1.26845e-09
-1.59852e-07
7.15785e-08
9.7339e-08
2.57034e-08
-7.76715e-10
-6.10512e-05
-2.31262e-09
-5.48662e-06
3.51091e-09
0.211962
-1.72952e-09
1.05691e-07
7.39098e-09
-1.70926e-07
-1.00122e-07
-2.55779e-07
6.45083e-08
2.07282e-07
5.02006e-10
3.24429e-08
-6.11963e-08
-2.7805e-07
1.84303e-07
1.47141e-07
-7.05696e-05
-1.71065e-09
-5.57745e-06
-3.80988e-09
-4.35306e-07
-1.73009e-09
0.176151
1.96662e-08
3.4888e-07
-7.73401e-09
-3.72016e-07
-1.5733e-07
-3.56941e-07
1.29371e-07
2.7127e-07
-7.0142e-08
-4.86636e-09
-1.2425e-08
-4.55661e-07
1.82588e-07
-7.67802e-10
-6.12127e-06
-8.60477e-09
-6.18596e-07
-1.13026e-08
1.05765e-07
1.96658e-08
0.150737
-2.00321e-09
4.53196e-07
4.41112e-09
-5.20789e-07
-2.03702e-07
-5.67389e-07
9.87213e-08
3.609e-07
3.85008e-09
-9.69528e-08
-1.40787e-07
-6.03241e-07
-6.76437e-06
9.41293e-10
-6.11459e-07
-2.88738e-08
-1.83479e-07
7.394e-09
3.4899e-07
-2.00225e-09
0.131752
-2.46303e-09
7.30553e-07
5.72551e-08
-8.07528e-07
-3.91465e-07
-8.11243e-07
2.46117e-07
4.35811e-07
-1.2464e-07
-1.38617e-07
-4.48947e-08
7.27401e-11
-6.58813e-07
5.05318e-09
-1.38597e-07
-4.22032e-08
-1.70751e-07
-7.72263e-09
4.53359e-07
-2.46622e-09
0.117024
2.79905e-08
9.87125e-07
-1.08762e-08
-1.14813e-06
-4.11973e-07
-1.13806e-06
1.65708e-07
6.24602e-07
2.10605e-08
-4.64869e-07
-7.22541e-07
-8.91868e-10
-4.30814e-08
2.6592e-08
-1.06415e-07
-1.00119e-07
-3.71817e-07
4.41811e-09
7.30823e-07
2.79905e-08
0.105263
-8.26035e-08
1.3299e-06
1.3804e-07
-1.6013e-06
-7.16928e-07
-1.40773e-06
3.93416e-07
5.55941e-07
-6.51715e-08
4.25414e-10
-7.00729e-08
1.23466e-09
8.2682e-08
3.49808e-08
-2.55372e-07
-1.57346e-07
-5.20519e-07
5.72827e-08
9.8752e-07
-8.25967e-08
0.0956518
1.35133e-08
1.71148e-06
2.43651e-08
-2.02106e-06
-7.21664e-07
-2.02829e-06
3.62644e-07
1.01538e-06
-7.90355e-08
1.08101e-10
2.4717e-08
-9.31527e-09
1.06284e-07
6.45039e-08
-3.56429e-07
-2.03706e-07
-8.07235e-07
-1.08122e-08
1.33049e-06
1.3502e-08
0.0876494
-1.82847e-07
2.29757e-06
2.69752e-07
-2.84557e-06
-1.03804e-06
-2.15232e-06
2.29747e-07
-1.47909e-09
-7.74519e-09
-4.95338e-09
2.52234e-08
-1.45588e-08
2.08125e-07
1.29391e-07
-5.6683e-07
-3.9144e-07
-1.14781e-06
1.38074e-07
1.71244e-06
-1.8284e-07
0.0808819
-3.62205e-08
2.64673e-06
2.33802e-07
-3.18504e-06
-1.49392e-06
-2.84939e-06
-4.52726e-09
2.88163e-09
-3.49497e-08
-9.74916e-09
5.61913e-08
5.40005e-10
2.72147e-07
9.8793e-08
-8.10628e-07
-4.12034e-07
-1.60075e-06
2.44856e-08
2.29884e-06
-3.61913e-08
0.075083
-2.06412e-07
3.68887e-06
1.01768e-07
-4.16735e-06
-1.37115e-06
-3.72502e-10
1.01869e-08
1.88962e-08
-6.95908e-08
-1.26545e-09
3.38078e-08
-7.00336e-08
3.61807e-07
2.46101e-07
-1.13711e-06
-7.16905e-07
-2.0206e-06
2.69976e-07
2.64864e-06
-2.06465e-07
0.0700585
-5.05806e-07
4.27329e-06
6.16622e-07
-5.0588e-06
9.94922e-09
-2.0352e-09
2.90271e-08
5.90636e-08
-1.57493e-07
-6.11494e-08
-3.52271e-09
3.87928e-09
4.37052e-07
1.65829e-07
-1.40692e-06
-7.21544e-07
-2.84485e-06
2.33833e-07
3.6916e-06
-5.05719e-07
0.0656616
-1.83283e-07
5.16327e-06
2.76572e-07
-1.45539e-10
2.15784e-08
2.00608e-09
5.54089e-08
7.164e-08
-2.75749e-07
-1.2496e-08
-9.52966e-08
-1.24429e-07
6.2558e-07
3.937e-07
-2.02712e-06
-1.03831e-06
-3.18405e-06
1.02276e-07
4.27696e-06
-1.83349e-07
0.0617816
-7.66476e-07
5.9974e-06
1.41618e-08
2.0667e-09
1.62199e-08
-1.51046e-08
1.01023e-07
1.8427e-07
-4.5304e-07
-1.4072e-07
-1.37295e-07
2.14917e-08
5.57194e-07
3.62453e-07
-2.15082e-06
-1.49353e-06
-4.16627e-06
6.16749e-07
5.16837e-06
-7.66569e-07
0.0583314
-5.89366e-07
-1.57281e-09
2.66402e-08
-1.7553e-09
1.39808e-08
2.57326e-08
1.5093e-07
1.82702e-07
-6.00911e-07
-4.46614e-08
-4.6327e-07
-6.52678e-08
1.0168e-06
2.30494e-07
-2.84786e-06
-1.3715e-06
-5.05718e-06
2.76707e-07
6.00416e-06
-5.89348e-07
0.0552439
