3.04024e-13
0.772231
0.851802
2.18504
2.24292
3.52481
3.9629
4.35201
6.23594
6.56159
7.10917
7.12547
9.37085
9.76533
10.5345
11.0598
11.8467
12.9568
13.4101
15.288
15.4632
16.2575
17.8899
17.8948
18.3105
19.5545
21.0702
21.4459
22.2239
23.5959
23.8559
25.4376
25.7551
26.5393
27.1493
28.0909
29.8505
30.6519
31.7203
32.5957
33.5425
33.554
34.1747
34.3215
36.6255
36.7726
39.2507
39.5024
39.8727
41.2712
41.7255
42.6122
43.4721
44.3308
44.8488
46.9305
47.1517
48.6422
48.8344
50.3081
50.4432
51.7906
53.648
54.026
54.1283
55.1741
55.4187
56.356
58.0583
58.9276
59.0983
60.8491
61.6928
63.2204
63.4448
65.6837
65.732
66.5701
67.4535
67.5153
67.7907
68.7304
69.9562
72.7089
73.0017
73.1716
74.1485
76.6801
77.0312
77.0759
78.7045
78.8284
79.0028
80.1584
80.2262
81.148
83.7661
84.1099
85.9763
86.2828
87.4755
88.7714
89.4193
89.5952
89.9894
91.8034
92.8469
94.4932
95.2807
95.3673
95.9118
96.7663
97.4548
98.4849
100.199
101.08
101.238
102.326
103.233
104.405
105.371
107.791
107.911
108.429
109.045
110.203
110.455
111.655
111.795
113.078
113.345
114.807
117.498
117.583
118.086
119.515
120.072
122.239
122.464
123.258
124.223
125.174
125.837
126.789
127.602
128.811
128.835
129.002
131.066
131.17
133.048
133.542
133.826
135.371
137.906
138.257
138.961
139.339
139.791
141.787
142.68
143.447
143.918
144.78
145.847
147.426
147.451
147.561
149.69
149.817
151.504
153.193
154.145
154.643
155.512
155.961
156.629
158.11
159.012
159.941
161.724
161.773
162.813
163.776
164.793
165.468
166.828
167.622
167.668
169.062
169.478
170.305
171.117
171.588
172.499
174.799
174.912
176.621
177.957
179.408
179.631
180.148
180.85
183.369
184.209
184.466
185.522
185.787
187.613
187.809
188.013
188.883
189.397
190.364
192.233
193.178
193.919
195.936
196.135
197.395
197.925
199.142
199.414
200.796
202.395
203.707
204.028
204.659
205.789
206.212
206.701
208.511
209.128
209.726
210.118
210.654
212.054
213.981
214.417
214.823
215.095
217.185
218.217
219.586
221.826
222.03
222.379
222.917
223.748
225.239
226.302
226.755
227.26
229.93
230.823
231.221
231.307
233.467
233.508
233.982
234.704
236.025
236.736
238.111
238.585
239.891
240.394
240.695
242.191
243.73
244.289
245.405
245.817
246.25
248.886
248.96
250.118
251.938
253.107
253.712
255.628
256.348
256.488
256.717
257.767
257.826
258.802
258.844
259.974
260.277
261.393
264.176
264.271
265.868
266.563
268.036
268.289
269.956
271.054
273.635
274.23
274.321
274.55
276.249
277.184
278.481
278.852
279.297
280.643
281.282
281.524
283.577
283.695
284.045
284.782
285.767
286.229
287.95
289.258
289.36
289.971
291.02
292.029
295.031
295.759
295.91
297.561
297.984
298.586
299.765
300.955
301.21
303.626
303.867
305.288
305.468
306.721
307.767
307.777
308.699
310.452
310.536
311.77
312.042
312.245
313.412
314.992
315.162
318.284
318.612
320.059
320.699
321.069
322.356
322.565
325.35
326.118
326.211
327.718
327.991
328.504
329.748
330.002
332.485
333.085
334.229
335.682
335.984
336.911
337.851
338.048
338.775
339.334
340.119
341.013
342.309
343.677
343.809
344.66
345.979
346.065
347.344
348.947
349.265
349.73
352.344
353.232
353.86
354.769
356.971
358.422
358.825
358.84
361.268
361.79
362.186
363.78
364.673
365.179
366.221
366.872
367.532
367.66
367.779
368.523
369.726
370.669
372.278
373.19
373.81
373.982
377.041
377.304
378.62
378.849
381.947
382.325
383.617
384.384
385.109
386.1
386.956
387.561
387.705
389.115
390.585
390.915
391.478
391.624
393.313
394.079
394.813
396.753
397.956
398.792
398.954
399.381
400.522
401.011
401.495
403.165
404.335
405.084
406.915
407.315
408.314
408.64
409.751
412.997
413.016
413.612
413.671
415.169
415.403
417.804
418.144
419.182
419.356
421.041
422.721
424.538
424.701
425.191
425.9
426.731
428.207
428.621
429.047
430.349
431.906
432.257
432.62
434.526
435.188
435.761
436.513
438.72
439.108
439.614
439.88
440.522
441.32
443.23
443.501
445.152
446.151
447.518
447.807
450.297
450.309
451.271
451.777
452.162
452.51
454.333
455.342
456.693
459.007
461.098
461.505
462.564
462.582
463.137
463.568
464.416
465.105
465.92
465.951
466.733
467.573
467.966
469.605
470.484
471.188
472.546
473.637
474.722
475.208
475.853
477.557
479.903
479.925
481.159
483.568
484.842
484.937
487.071
487.686
488.615
489.351
490.105
491.134
491.867
492.209
492.985
493.343
495.403
495.645
496.128
496.382
498.376
499.085
499.725
499.968
500.479
501.817
502.517
504.196
504.62
505.34
506.526
508.936
509.886
510.555
511.035
512.781
513.657
514.117
516.081
516.525
518.301
518.488
518.9
519.165
520.164
521.278
522.442
523.438
524.795
525.834
526.235
526.732
528.206
528.357
530.482
532.868
533.766
534.703
534.909
535.778
536.569
536.972
537.842
537.931
539.633
539.641
541.14
541.414
543.591
543.614
544.869
545.745
546.373
547.676
548.17
549.345
550.264
550.881
553.215
555.082
555.385
555.526
557.64
558.114
559.716
560.171
562.364
562.605
563.722
565.979
566.689
567.129
567.263
568.365
569.386
569.545
571.03
571.903
572.196
572.638
573.291
573.539
574.004
574.414
575.366
576.435
577.468
577.712
579.815
580.854
580.936
582.599
585.244
585.657
586.333
587.501
588.295
591.015
591.205
592.589
593.077
593.934
595
597.081
597.874
598.655
599.927
600.504
602.564
602.625
603.036
603.786
604.836
605.298
606.338
606.922
607.493
608.316
608.985
610.429
611.071
611.477
612.212
612.858
614.274
615.337
615.449
617.392
617.887
619.552
619.993
621.482
623.156
625.166
625.171
625.836
627.69
627.931
630.228
630.861
632.73
633.85
634.147
634.967
635.342
636.304
636.378
637.528
638.364
638.822
639.32
640.737
641.464
642.264
643.996
645.596
646.012
647.256
647.846
648.537
649.607
650.093
650.93
650.968
651.682
652.67
653.901
653.969
655.159
657.166
658.547
659.487
661.508
662.223
662.463
664.133
664.286
665.917
667.49
667.696
667.818
668.605
670.501
670.827
671.818
672.607
675.035
675.528
676.985
678.012
678.538
679.564
680.569
681.27
683.987
684.329
684.923
685.265
686.359
686.982
688.108
688.388
690.028
690.896
691.435
692.517
692.591
693.202
694.569
695.794
696.304
696.766
698.14
698.685
699.019
699.547
701.535
702.245
704.435
704.897
707.578
708.567
708.821
709.344
710.913
711.144
711.972
712.796
713.25
716.587
716.648
718.801
719.37
719.537
720.534
720.634
721.576
723.606
724.374
725.785
727.155
727.357
727.643
729.39
729.458
729.642
730.662
731.985
732.426
733.095
733.099
734.373
734.787
734.8
737.118
737.522
739.958
740.715
740.755
742.492
743.988
744.791
745.426
745.765
748.11
749.29
750.96
752.118
753.646
754.832
755.204
756.094
756.565
757.156
759.453
760.471
761.14
761.447
762.986
763.072
764.618
764.68
765.547
765.738
768.079
769.21
769.617
770.986
771.925
772.242
772.836
773.108
774.199
774.828
776.232
777.641
777.782
778.123
778.95
778.999
781.062
782.437
785.185
785.341
786.395
787.132
787.535
790.155
790.569
791.965
793.037
793.752
793.789
795.93
796.497
797.229
797.711
797.967
798.189
800.992
802.225
802.343
803.033
803.34
803.97
804.931
807.902
808.311
809.339
810.107
810.984
811.376
812.061
814.603
814.69
815.889
817.97
818.249
819.275
820.554
821.476
822.388
822.395
823.579
823.831
823.997
826.729
826.901
827.416
828.864
830.069
831.601
832.029
832.336
833.128
833.214
834.493
834.812
836.529
837.387
838.897
839.041
841.109
843.018
844.033
844.159
844.7
846.878
847.72
848.959
850.027
850.111
852.394
853.623
854.887
856.929
856.947
858.028
858.617
859.077
859.601
861.592
861.862
862.518
863.752
864.392
865.719
865.839
866.598
866.893
867.265
868.135
868.616
868.641
870.105
870.955
871.985
872.045
873.214
873.478
874.585
876.862
876.973
879.787
879.793
882.526
883.971
884.846
885.451
886.913
887.321
889.055
889.148
890.976
891.838
892.045
894.141
894.934
895.924
897.987
898.161
898.968
899.66
901.514
901.933
902.371
903.208
904.052
904.116
905.979
906.061
907.222
907.638
908.051
909.705
910.356
910.413
911.216
913.573
913.741
914.364
915.768
917.34
917.7
919.145
919.591
920.769
922.512
922.807
924.211
924.67
926.394
927.974
928.936
929.202
929.864
932.002
932.314
933.534
934.235
