3.84426e-13
0.750195
0.8436
2.1038
2.18935
3.46907
3.73568
4.42865
6.17087
6.19922
6.98771
7.11913
8.83746
9.47558
10.6296
10.8905
11.7307
12.8009
13.6897
13.9863
15.6215
16.1429
16.8674
17.9914
17.9991
19.1785
20.6695
21.4472
21.8033
23.5793
23.672
24.5728
25.7868
25.9398
26.8809
27.4498
28.8059
29.8411
31.0709
32.5084
32.9116
33.4115
33.6344
34.2801
35.8333
36.1412
38.3239
39.1316
39.7087
39.7599
41.5342
41.7155
43.0241
43.4852
44.1327
45.09
46.9648
47.2333
48.2853
49.6644
49.7996
51.3448
51.8299
53.5119
53.5435
54.0998
55.0464
55.5707
56.1757
57.8447
58.1794
59.9381
60.6027
61.7576
62.8394
63.2499
65.2916
65.748
65.919
66.8464
67.1712
67.5948
68.9385
70.269
72.0482
72.8737
73.0261
73.1158
75.8785
76.0833
76.9657
77.1814
78.4412
78.9327
79.5594
80.6588
81.1634
83.457
84.4005
84.6263
86.5287
86.6806
87.622
88.9083
89.141
90.072
90.464
92.5242
93.1991
93.7618
95.1574
95.8768
95.9166
97.0556
97.4569
98.8674
99.3018
101.327
101.357
102.576
103.44
105.141
105.536
107.749
108.301
108.389
108.967
109.572
111.525
112.191
112.594
112.836
114.05
115.386
116.744
117.103
118.397
118.901
119.907
121.005
121.308
122.799
123.046
125.337
126.102
126.56
126.818
128.55
129.092
129.816
130.145
131.1
132.766
133.489
133.735
134.799
137.524
138.252
138.323
138.793
140.391
141.236
142.937
143.868
144.15
144.275
144.812
145.835
147.511
147.534
147.823
149.702
150.005
150.412
153.442
153.848
154.845
155.411
155.611
156.871
157.816
159.75
160.055
161.54
162.106
163.617
164.521
165.104
166.172
166.937
167.036
167.582
168.974
169.906
170.151
170.805
172.536
174.032
174.124
174.148
176.626
178.091
178.23
179.038
179.665
182.643
182.698
183.37
183.941
184.963
184.997
187.039
187.237
187.809
188.126
188.328
189.062
192.667
192.784
194.194
194.549
195.723
197.386
197.492
198.937
199.764
200.433
201.762
203.114
203.604
204.256
205.242
205.712
206.433
207.505
208.332
208.641
210.264
210.267
210.856
212.681
213.082
214.686
215.463
216.528
216.68
217.394
221.021
221.419
221.676
222.285
222.451
224.476
225.378
226.225
227.372
227.845
229.07
229.273
231.264
231.792
232.135
232.66
233.862
234.259
236.299
237.359
237.992
239.086
240.126
240.26
240.687
242.76
242.844
243.791
245.327
246.011
247.076
247.415
249.006
249.186
249.615
251.686
253.042
254.144
255.754
256.157
256.618
256.801
258.466
258.653
258.827
260.22
260.288
262.223
264
264.452
265.468
265.504
267.835
267.903
269.042
269.39
270.945
272.724
273.832
274.115
275.122
276.751
277.136
278.472
279.216
279.57
280.027
280.992
281.961
282.148
282.506
284.373
285.076
286.179
287.439
288.113
288.531
289.284
290.21
290.896
293.043
293.503
295.001
295.655
297.453
298.411
299.242
300.127
300.196
301.007
302.246
303.72
304.453
305.861
305.959
307.225
309.071
309.158
310.056
311.154
311.415
311.623
313.213
314.666
314.83
314.886
315.358
318.234
320.09
320.425
320.927
321.455
322.201
322.577
322.909
325.663
325.739
327.011
327.091
327.997
330.032
330.227
332.434
334.389
334.594
335.531
335.904
337.435
338.004
338.462
338.745
339.983
340.975
342.12
342.533
343.03
343.233
344.69
345.334
346.847
348.169
349.236
349.445
350.756
351.059
352.635
353.431
356.472
356.641
358.397
359.202
359.362
361.162
361.383
362.696
363.65
364.33
364.936
365.045
366.43
367.295
367.369
367.929
368.039
368.903
369.731
370.901
371.319
373.675
373.71
374.83
376.724
377.136
378.159
379.94
381.629
382.645
383.333
383.743
384.489
386.113
387.145
387.944
388.588
389.802
389.914
391.832
392.271
393.467
394.55
394.778
394.939
397.322
398.373
398.884
399.171
399.934
400.657
400.791
401.809
403.898
404.594
405.238
407.145
407.543
407.946
409.39
410.595
410.618
412.074
413.03
413.443
415.232
415.576
416.908
417.079
419.39
420.526
421.115
421.833
423.881
424.69
425.004
425.815
426.107
426.803
427.674
428.729
429.888
430.267
431.105
431.776
432.731
433.563
434.424
435.619
437.785
438.663
438.829
439.781
440.538
441.347
442.608
443.634
445.005
446.308
447.18
448.214
449.748
449.846
450.354
451.702
451.953
453.485
454.656
454.931
456.158
457.232
458.152
459.118
460.809
461.936
462.339
462.734
462.902
463.94
464.626
465.92
466.339
467.259
467.506
468.404
469.306
469.978
471.849
473.056
474.531
474.723
475.763
475.848
477.608
478.009
479.096
480.955
482.275
483.919
484.117
485.071
487.162
487.208
488.76
490.323
490.411
491.209
491.864
492.868
494.24
494.444
494.659
495.762
495.967
497.156
498.554
498.988
499.364
500.286
500.573
502.041
503.444
505.615
506.067
506.203
507.458
509.72
509.823
510.558
511.449
512.35
514.697
514.703
516.104
516.347
517.71
518.214
519.268
519.73
520.639
521.399
522.378
523.134
525.039
525.284
526.083
526.184
527.652
528.623
529.788
530.77
533.378
534.249
534.73
536.06
536.206
536.424
537.331
537.754
539.185
539.849
541.937
542.184
543.35
544.243
544.851
545.747
546.178
546.416
548.781
549.092
549.817
550.916
551.945
552.149
555.406
556.176
556.912
557.093
557.773
558.583
560.437
562.392
563.41
564.288
564.362
566.966
567.234
567.418
567.813
569.22
569.285
571.004
571.668
571.999
572.485
573.402
573.8
574.227
575.99
576.909
577.443
577.452
579.002
579.765
579.847
581.57
581.894
585.456
586.197
586.658
587.571
588.937
589.973
590.872
592.078
592.539
593.974
594.364
595.528
596.623
599.36
599.639
600.199
600.825
602.212
603.025
604.396
604.419
605.586
606.498
607.153
607.771
608.377
609.139
610.115
610.242
611.772
611.976
612.836
613.105
615.263
615.942
616.879
617.891
619.351
619.436
621.751
621.906
623.194
623.678
625.054
625.404
626.14
628.221
628.55
630.485
631.485
632.565
633.586
634.559
634.997
636.249
637.007
637.568
637.962
638.828
639.473
640.766
642.653
643.96
645.145
645.942
646.281
647.056
647.536
648.678
648.726
650.361
650.408
651.468
652.115
652.224
653.33
654.296
655.384
657.416
658.508
659.228
659.986
662.223
662.657
663.445
664.71
665.553
667.249
667.963
668.502
668.527
669.958
670.797
671.936
672.102
673.029
675.819
676.37
676.899
677.758
679.676
680.675
681.85
682.642
682.914
685.135
685.148
685.369
686.807
686.923
688.198
688.715
689.16
690.375
690.883
690.935
692.663
693.1
693.895
694.97
696.515
696.885
697.452
698.054
698.923
699.584
702.398
702.914
704.032
704.862
706.413
707.792
707.997
708.149
709.861
710.365
711.655
713.45
714.074
714.934
717.335
718.384
718.959
720.473
720.505
721.381
724.07
724.268
724.787
725.001
726.769
727.149
727.45
727.693
728.91
729.517
730.446
730.946
731.082
732.942
733.88
734.623
735.555
735.641
736.124
736.426
738.832
739.967
741.477
742.947
742.989
744.721
746.143
746.315
746.834
748.725
749.045
750.002
751.939
752.238
754.759
754.888
755.863
756.934
757.818
758.823
759.682
760.821
761.305
761.805
763.099
764.057
765.03
765.707
766.425
767.574
768.419
768.676
769.547
770.055
770.906
772.012
772.828
773.438
775.413
775.747
775.913
777.871
778.309
779.514
780.229
780.807
782.023
783.392
785.064
786.016
787.489
787.809
788.288
789.296
792.173
792.982
793.777
794.537
794.841
795.458
796.523
797.626
797.756
797.933
799.904
801.195
802.13
802.87
803.411
805.707
806.075
806.48
808.341
808.622
810.587
811.065
812.026
812.129
813.629
814.233
814.305
815.146
817.146
817.742
819.793
819.948
820.367
821.296
822.383
822.571
823.121
824.659
824.938
826.58
826.833
829.4
830.304
830.583
832.084
832.257
833.248
833.665
834.791
835.256
835.854
837.814
838.39
838.592
840.154
840.815
842.353
844.953
845.556
846.266
847.761
848.084
849.302
850.42
850.761
852.069
852.551
854.293
855.818
856.064
857.82
858.375
859.371
860.381
860.453
860.836
862.811
863.312
864.339
866.088
866.188
866.723
867.006
867.923
868.571
868.647
869.523
870.58
872.234
872.889
873.437
874.371
875.964
877
877.568
878.262
881.64
881.754
882.512
882.897
884.1
884.949
885.429
887.93
887.993
889.146
889.815
891.509
891.743
893.416
893.661
895.387
896.207
897.743
898.725
900.448
900.894
901.035
902.122
902.876
903.242
904.372
904.793
906.303
906.774
907.82
908.295
908.56
909.441
909.9
912.875
913.586
913.8
915.061
915.411
916.006
916.817
917.098
