1.58798
-2.83486e-06
-0.0305435
-5.70531e-07
-0.00221274
-1.28569e-07
-0.00025859
-2.9557e-08
-3.68329e-05
-8.36364e-09
-5.84606e-06
-4.637e-09
-9.93097e-07
4.20884e-09
-1.79969e-07
1.07243e-09
-4.44064e-08
2.50547e-09
-1.47659e-08
4.38154e-09
-2.83486e-06
1.02467
-5.67678e-07
-0.00164092
-1.22216e-07
-0.000207101
-2.81855e-08
-3.03684e-05
-1.4765e-08
-4.91728e-06
2.73694e-09
-8.32579e-07
-6.64286e-09
-1.16333e-07
1.78833e-09
-3.50377e-08
1.55006e-09
-1.77544e-09
1.31669e-08
9.2727e-10
-0.0305435
-5.67678e-07
0.444924
-1.12621e-07
-0.000190027
2.95998e-09
-2.70881e-05
-1.09055e-08
-4.37977e-06
-2.01009e-08
-8.18049e-07
3.09839e-09
-9.67942e-08
-1.64161e-09
9.46981e-08
8.19434e-10
-2.17785e-09
1.9095e-08
4.19397e-08
1.97759e-09
-5.7053e-07
-0.00164092
-1.12621e-07
0.291103
-3.02247e-09
-2.69543e-05
6.73659e-08
-4.08843e-06
1.9391e-08
-8.94535e-07
-9.33568e-08
-3.37997e-07
5.12255e-08
-6.57181e-09
1.46966e-09
3.68539e-07
1.96887e-08
-3.85414e-08
-6.0698e-08
1.35247e-07
-0.00221273
-1.22216e-07
-0.000190027
-3.02244e-09
0.216843
2.20412e-08
-3.74186e-06
2.08335e-07
-4.21374e-07
-2.78307e-08
-5.23206e-07
-1.23872e-07
-5.25294e-07
1.18267e-07
1.57913e-07
1.9804e-08
6.69378e-07
-1.2326e-07
-7.47006e-08
-6.36763e-09
-1.28569e-07
-0.000207098
2.96047e-09
-2.69537e-05
2.20418e-08
0.172905
9.41713e-08
-2.78539e-07
3.03789e-07
2.65126e-07
2.31443e-08
-8.86733e-07
-1.89893e-07
-6.63832e-07
2.4299e-07
2.22507e-07
-2.13314e-07
1.14971e-06
-3.40413e-08
-4.08722e-07
-0.000258584
-2.81854e-08
-2.70862e-05
6.73687e-08
-3.74105e-06
9.417e-08
0.143825
5.55537e-08
5.04264e-07
5.88608e-07
3.96752e-07
5.61002e-08
-1.18817e-06
-2.44362e-07
-1.05478e-06
9.25226e-08
4.01836e-07
-1.45876e-07
1.43149e-06
1.00708e-07
-2.95566e-08
-3.03601e-05
-1.09046e-08
-4.08619e-06
2.08335e-07
-2.77432e-07
5.55603e-08
0.123139
1.56446e-07
7.63841e-07
9.22139e-07
8.16809e-07
1.34868e-07
-1.85581e-06
-6.91609e-07
-1.4246e-06
3.85859e-07
2.13099e-07
-7.35007e-08
2.47124e-06
-3.68176e-05
-1.47645e-08
-4.37412e-06
1.9384e-08
-4.18684e-07
3.03815e-07
5.05714e-07
1.56444e-07
0.107665
2.27828e-07
1.41654e-06
1.38495e-06
1.02977e-06
-1.95438e-07
-2.56528e-06
-6.75173e-07
-2.35274e-06
7.34634e-07
8.19434e-07
-3.95395e-07
-8.36302e-09
-4.89548e-06
-2.01065e-08
-8.88531e-07
-2.78152e-08
2.6836e-07
5.88617e-07
7.65825e-07
2.27843e-07
0.0956485
3.46061e-07
1.92391e-06
1.48978e-06
1.42061e-06
3.84424e-08
-3.97956e-06
-6.74922e-07
-2.49457e-06
6.92771e-07
1.27502e-06
-5.81072e-06
2.73602e-09
-8.04547e-07
-9.33406e-08
-5.1668e-07
2.31122e-08
4.00756e-07
9.22205e-07
1.41908e-06
3.46058e-07
0.0860448
-3.73119e-09
2.71691e-06
2.29351e-06
1.28136e-06
2.87173e-07
-4.60583e-06
-1.18303e-06
-2.96197e-06
2.11137e-07
-4.63672e-09
-7.84772e-07
3.11673e-09
-3.2481e-07
-1.23901e-07
-8.79174e-07
5.611e-08
8.21461e-07
1.38497e-06
1.92709e-06
-3.67618e-09
0.0781917
2.69195e-07
3.06785e-06
3.19889e-06
2.22929e-06
2.58764e-08
-5.69598e-06
-2.23377e-06
-4.01529e-06
-9.21222e-07
-6.63752e-09
-6.92435e-08
5.12205e-08
-5.11628e-07
-1.89866e-07
-1.17971e-06
1.34744e-07
1.03497e-06
1.48998e-06
2.72102e-06
2.69241e-07
0.0716483
5.3588e-07
4.67982e-06
3.65841e-06
2.91831e-06
-7.64962e-07
-7.5176e-06
-8.36954e-07
4.2069e-09
-2.44609e-08
-1.64731e-09
1.899e-08
1.18336e-07
-6.49275e-07
-2.44472e-07
-1.84649e-06
-1.95394e-07
1.42652e-06
2.29369e-06
3.07336e-06
5.35925e-07
0.0661123
2.32018e-07
6.15857e-06
3.66238e-06
3.08299e-06
1.07618e-06
-9.76223e-06
-4.8935e-08
1.78966e-09
1.45059e-07
1.5166e-09
1.82738e-07
2.42952e-07
-1.03938e-06
-6.91462e-07
-2.5548e-06
3.82897e-08
1.28836e-06
3.19905e-06
4.68624e-06
2.31831e-07
0.0613655
-6.49726e-07
7.25008e-06
6.48678e-06
3.05612e-06
2.95896e-07
1.07406e-09
1.25192e-07
8.46655e-10
4.12937e-07
1.97629e-08
2.47658e-07
9.28152e-08
-1.40797e-06
-6.75193e-07
-3.96726e-06
2.86767e-07
2.23573e-06
3.65786e-06
6.16728e-06
-6.49258e-07
0.0572487
1.2218e-06
8.31222e-06
6.68331e-06
4.05397e-06
1.75237e-07
1.54044e-09
8.21132e-08
1.96497e-08
7.10612e-07
-2.13014e-07
4.27791e-07
3.86027e-07
-2.33418e-06
-6.75144e-07
-4.59384e-06
2.40263e-08
2.92598e-06
3.66371e-06
7.26156e-06
1.22137e-06
0.0536433
3.01252e-07
1.05975e-05
7.35505e-06
2.50276e-09
2.5765e-07
1.90137e-08
3.30559e-08
-1.23032e-07
1.19026e-06
-1.4564e-07
2.4083e-07
7.3463e-07
-2.47682e-06
-1.18493e-06
-5.68153e-06
-7.64242e-07
3.09169e-06
6.48532e-06
8.32712e-06
3.01455e-07
0.0504598
-2.53396e-07
1.31797e-05
3.30101e-07
1.31683e-08
1.74231e-07
-6.06791e-08
-1.00197e-08
-3.39224e-08
1.47257e-06
-7.33495e-08
8.45845e-07
6.90885e-07
-2.94191e-06
-2.23196e-06
-7.5006e-06
1.07184e-06
3.06572e-06
6.68357e-06
1.06159e-05
-2.53411e-07
0.0476264
-1.84819e-07
4.37765e-09
3.9717e-07
2.08702e-09
2.44778e-07
-6.56437e-09
-3.46134e-07
1.00598e-07
2.50995e-06
-3.97069e-07
1.30347e-06
2.13731e-07
-3.99314e-06
-8.41464e-07
-9.74241e-06
2.93601e-07
4.06287e-06
7.3544e-06
1.32046e-05
-1.84101e-07
0.045085
