4.2984e-13
0.805285
0.853704
2.21566
2.34051
3.58957
4.26783
4.35478
6.67408
6.78236
7.10559
7.11875
9.65415
10.1653
10.9042
11.1762
12.1298
13.175
14.0945
15.5634
15.7788
17.4861
17.5606
18.2351
18.2882
20.8679
21.1104
22.39
22.6584
23.8235
24.7031
25.5466
26.6147
27.1606
27.4715
28.4835
30.7614
31.4454
32.4827
33.298
33.6305
34.2734
34.4723
34.6882
38.3314
38.386
39.5776
40.8152
41.0586
41.5553
42.1839
43.0687
44.0441
45.5443
46.0445
47.3646
48.2854
49.416
49.4479
51.1669
51.4488
53.5478
53.6218
54.87
55.1078
56.0188
57.2015
58.1188
58.2342
59.8007
61.2208
62.8615
62.9902
64.7598
65.5484
65.7912
66.9107
67.3958
67.503
68.056
69.0919
71.6914
72.3343
72.8827
73.7275
76.2353
76.6513
77.0431
78.0181
78.799
79.4901
79.6132
80.0776
81.1269
82.9376
83.791
85.9057
86.1234
87.3125
88.434
89.4684
89.6119
89.6439
91.6605
92.5975
94.2922
94.7357
95.8938
95.96
96.7943
97.2935
99.2586
100.359
100.926
101.264
102.915
103.074
104.91
106.374
107.661
108.492
108.6
110.749
110.992
111.293
111.808
111.999
112.844
113.64
114.539
116.804
118.475
118.775
119.845
120.635
122.536
122.715
124.105
124.534
126.231
126.449
127.438
127.787
128.981
129.115
129.482
131.138
132.881
133.065
134.572
136.339
136.668
137.946
138.509
140.849
141.442
141.699
142.266
143.488
143.755
146
146.374
147.187
147.507
148.235
148.244
149.894
151.789
153.428
153.511
155.343
155.492
156.763
156.82
158.682
159.316
159.67
161.788
162.021
163.495
165.004
165.043
165.881
167.011
167.412
168.763
169.243
170.09
170.14
172.084
172.224
174.037
175.387
175.678
176.696
178.499
179.297
179.895
183.344
183.649
183.661
183.763
185.972
186.002
187.578
187.726
188.08
188.103
188.694
190.379
191.377
192.273
193.352
194.255
197.088
197.744
198.731
198.755
202.094
202.59
203.234
203.939
204.558
204.763
204.893
206.662
207.119
208.089
209.291
210.226
210.423
210.659
213.228
213.9
214.659
214.887
216.157
218.018
220.67
221.182
221.868
222.084
222.146
223.256
223.681
225.412
226.208
227.322
229.389
229.466
230.776
231.106
232.25
232.993
234.104
234.129
235.89
237.254
238.644
238.936
239.891
240.118
240.866
241.059
242.245
243.712
245.277
245.657
248.486
248.753
250.812
251.293
252.798
254.183
254.306
255.895
256.069
256.546
256.907
257.091
257.928
258.766
260.26
260.645
260.95
261.883
262.861
265.62
266.114
267.683
267.99
268.349
272.351
272.78
273.511
274.262
275.319
276.24
276.243
277.886
278.126
279.809
280.032
280.105
280.896
281.873
283.004
283.588
284.11
284.74
285.94
287.858
289.305
289.558
290.926
292.348
293.81
293.868
295.303
296.504
297.703
297.951
298.596
299.349
300.734
301.804
303.241
303.92
305.73
306.594
306.961
307.413
308.969
309.222
310.292
310.642
311.834
312.275
313.386
313.677
315.787
316.72
318.279
318.916
319.398
321.691
321.755
322.044
323.003
325.004
325.559
327.435
327.573
328.717
329.552
331.113
332.664
333.839
334.255
335.171
335.912
336.313
337.471
337.72
339.208
340.172
341.252
341.695
342.206
342.488
344.366
344.592
345.696
346.041
347.409
348.898
349.637
350.597
352.733
353.448
354.669
354.807
356.538
357.589
358.499
360.45
361.257
361.369
363.189
365.114
365.455
366.504
366.616
366.724
367.191
367.376
367.442
368.872
369.854
370.454
372.739
373.603
374.125
374.337
375.02
378.277
378.966
381.032
381.26
382.158
383.653
385.408
385.41
386.55
387.425
389.658
389.76
390.701
390.743
392.041
392.153
394.572
395.535
395.902
396.085
397.68
397.825
399.149
399.271
399.862
400.709
402.478
402.638
405.237
406.247
407.232
407.306
408.737
410.158
411.035
411.848
414.023
414.437
415.262
415.931
416.518
417.513
418.625
419.054
420.789
421.028
423.112
424.236
424.623
425.764
426.705
426.715
428.769
429.01
430.508
431.379
431.388
432.851
434.027
434.342
435.038
436.252
437.172
438.678
438.741
439.669
440.481
441.461
442.057
442.206
445.667
445.715
446.659
447.444
448.551
451.127
451.336
451.748
452.272
454.094
455.737
456.976
460.662
461.168
461.171
461.769
462.09
462.215
463.014
463.799
464.894
464.909
465.902
466.181
466.512
467.281
467.31
469.658
469.698
470.102
474.761
474.798
475.072
475.562
476.397
478.594
480.34
481.862
484.604
485.138
485.272
486.696
487.084
488.447
489.122
490.534
491.009
491.9
492.637
492.841
493.116
493.129
496.013
496.103
496.173
497.228
498.788
499.594
499.815
499.851
500.812
503.744
504.207
505.086
506.428
507.476
509.128
509.861
510.461
512.624
513.705
514.469
515.517
516.711
517.329
517.718
518.673
519.262
520.344
520.388
522.175
522.484
523.695
524.855
526.171
526.635
527.054
527.622
531.839
531.942
532.606
534.402
535.188
535.983
536.321
536.559
537.523
538.159
538.213
539.829
540.295
540.909
542.177
542.83
545.201
545.228
547.444
547.757
548.694
549.171
549.837
550.722
552.756
553.57
555.563
556.274
556.646
558.03
559.217
560.528
562.069
565.337
566.125
566.298
566.533
566.56
566.932
567.41
568.739
570.378
571.025
571.778
572.826
573.029
573.476
573.738
575.038
576.36
576.457
577.852
577.86
580.261
580.891
581.862
582.618
583.269
584.038
585.748
587.301
590.264
590.667
592.106
593.104
593.237
593.344
596.951
597.385
599.632
600.034
600.477
600.608
601.543
602.683
602.92
604.125
604.53
605.981
606.26
607.277
607.494
607.796
608.147
609.713
610.875
611.208
612.248
613.894
615.262
616.009
616.243
616.816
616.941
619.209
619.956
621.192
622.219
625.094
625.358
627.004
628.719
628.92
631.055
632.172
632.47
633.445
634.057
635.381
636.345
636.357
636.769
637.058
638.292
639.379
640.097
641.692
641.816
644.24
644.948
646.917
646.982
649.053
649.442
649.702
650.147
650.792
651.435
651.714
652.575
653.624
653.988
656.732
658.855
659.637
660.519
662.53
662.595
662.862
663.479
663.683
666.483
666.834
668.326
668.613
669.344
670.213
670.501
671.585
672.204
674.409
676.972
677.804
679.996
681.078
681.443
681.801
683.368
684.04
684.977
685.769
685.951
686.622
687.508
688.227
689.173
690.043
691.085
692.519
692.609
694.649
694.938
695.009
696.899
697.2
698.1
698.189
699.147
699.564
700.278
702.367
703.661
704.332
706.148
707.21
708.277
709.132
709.817
711.009
713.974
714.568
714.577
715.779
718.805
719.115
719.874
720.126
720.792
721.362
723.607
725.956
726.53
726.634
727.055
727.214
728.04
728.599
728.871
731
731.537
731.814
732.379
733.864
734.542
735.745
735.928
736.119
737.297
738.139
739.182
739.579
741.593
741.65
743.85
744.946
745.151
746.623
749.449
749.839
754.144
754.331
754.575
755.354
756.804
756.907
757.277
758.071
760.559
760.677
761.759
763.954
764.771
764.858
765.244
766.622
767.054
769.385
769.419
770.291
770.4
772.142
772.595
773.264
773.566
773.787
774.269
774.36
775.834
775.969
777.013
778.062
780.41
782.138
785.338
785.445
786.154
786.962
787.912
789.311
789.545
792.535
793.388
795.108
795.202
796.247
796.978
797.487
798.088
798.458
799.982
800.548
800.989
801.055
803.378
804.322
805.146
805.317
807.584
809.218
810.227
810.772
811.26
812.92
813.192
814.257
815.02
817.413
818.348
819.391
820.139
820.915
821.405
822.6
822.906
823.451
823.519
825.719
825.865
825.972
829.209
830.288
830.533
831.136
832.419
832.717
832.921
833.361
834.012
835.239
836.259
836.506
837.845
837.921
840.954
842.359
842.616
846.951
848.044
848.118
848.337
848.718
851.562
851.848
853.08
855.008
856.122
857.734
857.813
858.177
859.924
860.838
861.865
862.889
863.132
863.836
865.545
865.718
865.969
866.266
866.335
866.959
867.504
868.478
868.505
868.789
868.898
869.65
871.762
871.785
873.19
874.984
877.108
877.727
880.122
881.152
884.007
886.59
886.977
887.453
888.41
888.737
889.344
889.457
892.62
893.102
894.715
896.05
897.448
898.417
898.745
899.316
900.416
900.682
901.695
902.887
904.089
904.319
905.167
905.41
905.876
906.413
906.699
907.994
908.731
909.36
909.385
910.501
912.614
914.419
914.847
915.041
915.716
917.46
919.345
919.772
921.868
922.401
923.203
925.553
926.954
927.706
928.139
929.478
931.352
931.633
931.979
933.285
934.271
936.19
936.687
936.709
938.52
938.611
940.226
940.896
941.095
942.19
942.207
944.299
944.667
945.693
947.572
947.746
948.08
949.652
950.783
951.325
