5.34594e-13
0.700016
0.76358
1.7104
2.28442
3.06784
3.67774
4.09807
5.19149
6.16737
6.80649
6.93856
8.15278
8.63773
9.71111
10.6516
11.5207
11.8202
12.6791
13.2501
13.8543
15.6491
15.9895
16.8389
17.6182
17.7761
18.9541
19.8597
20.9593
21.4969
21.935
23.5509
23.738
24.877
25.0387
26.6957
27.1776
28.3291
28.4136
29.3015
31.0581
31.246
31.9296
32.7539
33.6848
33.6993
35.6388
36.9462
37.0605
37.9839
39.2759
39.2772
39.6133
40.5479
41.5867
42.7741
43.5604
45.375
45.4416
46.0062
46.9489
48.0456
48.3605
48.8968
49.7482
51.313
52.6544
52.7439
54.1036
54.6149
55.1233
55.1403
56.8797
57.5049
57.6684
60.1189
60.722
61.9309
62.5678
63.5787
63.6735
63.9653
65.0784
65.7717
66.3667
67.3782
68.2553
69.5368
69.7347
72.4825
72.742
73.1875
74.0833
74.1844
76.1734
76.4626
77.3347
77.4518
78.3705
79.7383
79.7944
80.5395
82.5487
82.875
84.261
84.3591
85.6838
86.7249
87.3965
87.8648
89.4028
90.1332
91.2816
91.9495
92.2419
93.0305
93.7197
94.7549
95.8433
95.8763
96.4946
99.0278
99.2125
99.8907
100.693
101.516
103.201
103.545
103.765
105.7
106.545
106.695
107.335
108.586
109.54
110.679
111.072
111.495
112.461
114.495
114.706
114.863
115.462
117.053
117.845
118.148
119.518
120.224
120.974
122.257
123.619
123.77
124.779
126.537
127.374
128.185
128.443
129.317
129.859
130.063
130.923
131.275
133.381
133.606
134.447
134.492
136.707
137.567
139.127
140.018
140.858
140.94
141.957
142.537
144.095
144.964
145.537
145.563
147.481
147.78
148.447
149.031
150.224
150.264
152.11
152.301
154.772
155.224
155.257
156.544
156.558
158.475
159.081
159.63
161.496
161.496
162.687
163.357
163.647
164.996
166.644
166.805
166.921
167.81
169.489
170.009
171.084
172.397
172.463
173.952
174.172
176.045
176.577
176.818
177.13
178.958
179.034
181.468
181.784
182.609
182.653
184.214
184.369
184.458
184.964
187.518
188.425
188.526
190.465
191.376
192.457
193.265
194.546
194.991
195.271
196.169
196.858
197.377
197.558
198.829
199.477
201.424
201.573
202.588
203.427
203.79
205.651
205.851
208.108
208.211
209.275
209.656
210.895
213.018
213.224
213.907
214.101
214.607
215.124
216.732
217.111
217.333
217.908
219.856
221.424
221.976
222.776
223.527
225.141
225.692
226.897
227.235
227.913
229.255
229.751
231.19
231.953
232.012
232.711
233.797
234.118
235.596
236.163
236.216
237.21
239.004
239.479
239.834
242.844
243.367
244.822
245.147
246.05
246.291
247.85
248.035
248.604
248.979
250.331
251.01
252.598
253.128
253.601
254.605
254.976
256.815
257.123
258.066
258.7
259.34
260.591
261.321
261.698
264.152
264.197
264.959
266.267
267.284
267.699
267.722
268.295
270.555
272.05
273.401
273.507
274.957
275.461
275.644
276.34
277.104
277.167
280.378
280.606
281.035
281.132
282.499
283.594
283.83
284.048
284.963
286.134
286.36
288.27
289.481
289.769
290.027
291.015
293.066
293.371
296.014
296.524
297.417
297.461
298.202
298.692
300.852
301.227
302.53
303.061
303.771
304.811
305.077
305.93
306.093
307.858
308.239
308.435
309.225
310.246
310.6
313.36
314.348
314.39
315.491
315.869
317.511
317.935
319.137
320.287
320.493
321.216
321.642
323.375
324.144
324.549
326.834
326.848
327.795
328.131
329.644
330.776
331.293
331.337
331.991
334.423
335.154
337.08
337.713
337.955
338.074
339.112
339.68
340.176
341.481
341.974
343.615
343.959
344.332
345.679
346.391
346.978
348.128
349.34
349.947
349.982
350.651
352.501
353.187
353.637
355.684
357.102
357.382
358.444
358.971
360.702
361.218
362.118
363.06
364.247
365.929
366.08
366.566
367.084
368.433
368.956
369.132
369.751
370.274
371.536
373.356
373.788
374.072
374.95
375.488
375.66
377.704
378.028
378.247
380.865
380.897
382.459
382.591
384.542
385.09
385.248
386.98
389.243
389.432
390.401
390.835
391.856
392.218
392.273
393.83
395.538
396.855
397.167
397.599
399.069
399.143
399.507
401.853
402.037
402.386
402.621
403.791
404.212
404.298
406.001
406.971
407.709
409.688
409.696
411.382
411.668
411.881
413.586
415.287
415.522
416.525
418.785
419.247
419.426
419.537
421.84
422.342
422.905
423.471
424.572
425.208
426.386
427.243
427.363
428.24
428.457
431.367
432.013
432.137
432.737
433.806
434.736
435
436.214
436.943
438.46
439.306
440.425
440.471
441.391
441.81
444.11
445.005
445.912
446.313
447.716
448.842
448.969
449.862
450.252
451.457
451.855
452.602
453.461
454.151
454.779
456.518
456.519
458.251
458.967
460.619
462.159
462.255
463.155
463.939
464.561
465.198
466.303
467.075
467.489
468.583
470.267
471.461
471.664
472.284
474.293
474.672
475.35
476.43
476.856
477.579
478.151
478.798
479.375
480.937
481.059
482.415
482.949
483.332
485.27
486.904
487.747
488.787
488.789
490.186
490.763
491.979
492.118
493.111
494.675
495.355
496.12
496.938
498.625
498.938
499.525
499.791
502.166
502.413
502.977
503.778
504.107
504.824
505.585
506.369
506.904
509.602
510.387
511.667
511.84
512.811
513.139
514.891
515.197
516.289
516.612
517.869
519.157
519.969
520.816
522.032
522.395
522.477
524.231
525.612
525.742
525.876
528.007
528.499
529.915
530.084
530.133
531.139
533.498
533.835
534.45
534.628
535.568
536.551
538.409
538.678
540.028
540.19
541.527
541.736
543.431
543.666
544.721
545.645
546.071
547.621
548.825
549.584
550.044
551.93
552.308
552.646
553.243
555.877
556.263
556.923
557.264
559.11
559.502
560.044
560.06
560.875
563.406
564.077
564.426
564.746
566.154
567.556
568.155
569.216
569.889
570.998
571.268
572.497
572.635
573.357
573.864
575.178
575.983
576.165
576.926
578.827
580.504
580.662
580.978
581.318
582.341
583.49
585.903
585.986
586.635
587.076
588.602
590.924
591.932
592.1
592.871
594.145
595.58
596.461
596.821
597.482
597.99
598.936
600.403
600.959
601.362
602.507
603.058
603.373
604.995
605.277
606.165
607.042
608.508
609.189
609.417
609.695
610.87
611.784
613.013
613.325
613.379
614.588
615.731
617.552
618.254
618.714
619.347
620.099
620.489
622.752
623.889
625.701
627.553
627.589
629.069
629.453
629.713
630.152
630.243
632.462
633.49
635.513
636.218
636.57
636.891
637.479
637.885
638.023
639.824
640.39
641.218
642.326
642.656
644.407
645.726
646.48
647.425
647.888
647.892
648.671
649.154
650.588
650.676
652.216
652.935
654.39
655.375
655.809
655.847
657.958
659.59
660.342
660.574
660.804
661.32
664.283
665.192
665.395
665.998
667.057
667.681
669.508
670.538
670.72
671.825
672.684
673.353
673.376
673.979
675.167
676.442
676.849
677.899
679.447
681.281
682.612
683.371
684.685
684.774
685.526
685.742
686.45
686.808
688.048
689.466
689.857
690.557
690.792
692.591
693.951
694.111
694.376
695.041
695.979
697.781
698.338
699.612
699.875
700.486
701.359
702.547
703.048
703.222
703.387
706.996
708.047
708.513
708.93
710.11
710.571
711.747
713.082
713.182
714.228
714.267
715.692
717.411
719.106
719.905
720.12
721.626
722.336
722.906
724.07
724.823
726.399
726.562
727.122
728.795
729.436
730.239
731.169
732.238
732.35
733.771
733.961
734.234
734.504
735.56
736.312
737.433
737.717
738.384
740.822
740.849
742.303
743.135
743.888
744.639
746.09
746.856
747.417
748.345
748.545
749.659
750.8
751.479
752.48
753.838
754.274
756.238
757.668
758.777
759.28
759.855
760.465
760.524
761.525
764.367
764.734
765.741
766.583
767.507
768.227
769.077
769.123
770.62
771.116
771.768
772.941
773.162
774.73
776.167
776.303
776.796
777.294
777.643
779.316
781.036
781.791
782.287
782.398
783.205
784.339
785.324
786.008
786.763
787.645
788.312
788.628
790.257
790.648
791.447
792.825
794.409
796.551
796.686
797.6
799.392
800.59
800.706
801.902
802.201
803.194
803.829
804.499
805.361
805.931
806.816
806.884
808.084
809.975
811.045
811.417
813.177
813.592
813.761
814.947
816.32
817.025
818.418
818.776
819.102
819.569
821.328
821.61
822.395
823.001
824.347
824.887
825.714
826.128
827.868
828.793
829.674
830.437
831.589
832.526
832.843
835.091
835.128
836.983
837.567
838.568
839.263
839.871
840.621
841.486
842.062
842.85
843.111
844.437
845.784
846.409
847.196
849.351
849.598
850.567
850.622
851.572
852.065
853.089
853.187
855.634
857.545
858.785
858.858
859.467
859.75
860.818
861.544
862.884
863.242
864.526
