1.60708
8.75595e-07
-0.0289227
1.52543e-07
-0.00198722
2.94527e-08
-0.000219746
5.23267e-09
-2.96108e-05
-4.52998e-12
-4.44699e-06
1.91641e-09
-7.14962e-07
6.49931e-11
-1.22206e-07
-6.05184e-10
-2.08835e-08
-2.83966e-09
-3.99874e-09
-6.1257e-09
8.75595e-07
1.08353
1.52366e-07
-0.0014629
2.81987e-08
-0.000176327
5.23909e-09
-2.45197e-05
7.71277e-09
-3.75077e-06
3.17983e-09
-6.06062e-07
-2.67661e-09
-8.56852e-08
4.51387e-09
-2.48939e-08
4.38988e-09
-3.04707e-09
-5.76127e-10
1.22377e-08
-0.0289227
1.52366e-07
0.463018
2.51146e-08
-0.000162765
-1.9734e-09
-2.19748e-05
7.08248e-09
-3.35824e-06
1.81579e-08
-5.59508e-07
2.79877e-08
-7.47608e-08
-3.351e-08
6.12583e-08
4.20881e-08
-1.29279e-08
3.26171e-09
-4.50553e-08
3.63265e-09
1.52543e-07
-0.0014629
2.51146e-08
0.302307
-2.3886e-09
-2.18903e-05
-1.03654e-08
-3.19655e-06
1.1919e-09
-6.39698e-07
5.84979e-08
-1.70151e-07
4.02607e-08
4.7724e-08
-4.16422e-08
1.95279e-07
6.59362e-08
-1.25696e-07
1.73841e-08
-5.20076e-08
-0.00198722
2.81987e-08
-0.000162764
-2.38874e-09
0.225041
-4.48311e-10
-2.90607e-06
-5.12156e-08
-3.9554e-07
3.66171e-08
-3.42801e-07
5.08096e-08
-1.61255e-07
1.45931e-07
1.63363e-07
-1.32332e-07
2.0032e-07
1.40112e-07
-1.40911e-07
7.62611e-08
2.94526e-08
-0.000176324
-1.97383e-09
-2.18896e-05
-4.48344e-10
0.179392
-2.38694e-08
-2.32513e-07
-6.23589e-08
4.97326e-08
5.79622e-09
-4.30911e-07
1.49425e-07
-2.22172e-07
1.76665e-07
7.91821e-08
-1.8976e-07
4.4797e-07
2.92736e-07
-3.48997e-07
-0.000219739
5.2391e-09
-2.19724e-05
-1.03658e-08
-2.90507e-06
-2.387e-08
0.1492
8.3687e-09
3.23744e-07
-1.87227e-07
2.36903e-07
1.19629e-07
-6.04143e-07
1.12662e-07
-6.27126e-07
3.08868e-07
3.28362e-07
-1.94701e-07
5.03354e-07
3.82316e-07
5.23262e-09
-2.45092e-05
7.08373e-09
-3.19375e-06
-5.1217e-08
-2.31159e-07
8.36552e-09
0.127732
-5.48166e-08
6.70827e-07
-1.84823e-07
4.35743e-07
8.41992e-08
-1.2023e-06
1.67409e-07
-7.09795e-07
5.52525e-07
3.34309e-07
-3.28982e-07
9.15009e-07
-2.95925e-05
7.71253e-09
-3.35112e-06
1.19535e-09
-3.92163e-07
-6.23655e-08
3.25556e-07
-5.48184e-08
0.111676
5.52689e-08
1.08899e-06
-3.9894e-07
2.74433e-07
1.78512e-07
-1.43477e-06
3.09634e-07
-1.19653e-06
6.894e-07
7.8485e-07
-7.00751e-07
-4.51273e-12
-3.72288e-06
1.81561e-08
-6.32153e-07
3.66205e-08
5.39105e-08
-1.87224e-07
6.73144e-07
5.52504e-08
0.0992103
-2.0441e-08
1.18371e-06
-5.2399e-07
6.50221e-07
3.94317e-07
-2.14814e-06
2.87983e-07
-1.29057e-06
6.08117e-07
7.5714e-07
-4.40365e-06
3.17997e-09
-5.42398e-07
5.8487e-08
-3.34477e-07
5.82583e-09
2.4189e-07
-1.84853e-07
1.09196e-06
-2.04576e-08
0.089249
4.74353e-08
1.92028e-06
-5.81319e-07
6.35594e-07
4.60708e-07
-2.44843e-06
-1.11954e-08
-2.05096e-06
1.27014e-06
1.91637e-09
-5.4467e-07
2.79845e-08
-1.53407e-07
5.08094e-08
-4.21549e-07
1.19628e-07
4.41702e-07
-3.98934e-07
1.18743e-06
4.73747e-08
0.0811054
2.39553e-07
2.32151e-06
-8.63999e-07
1.20648e-06
2.67949e-07
-3.50105e-06
4.65782e-07
-2.57724e-06
-6.2644e-07
-2.6774e-09
-3.96683e-08
4.02727e-08
-1.44124e-07
1.49358e-07
-5.93552e-07
8.42739e-08
2.81403e-07
-5.24058e-07
1.92476e-06
2.39484e-07
0.0743213
2.59128e-07
3.41488e-06
-1.48656e-06
1.12645e-06
9.46012e-07
-4.32254e-06
2.08668e-07
6.51281e-11
3.2505e-08
-3.34989e-08
7.99768e-08
1.4589e-07
-2.03769e-07
1.1264e-07
-1.19042e-06
1.78503e-07
6.57935e-07
-5.8132e-07
2.32736e-06
2.59015e-07
0.0685824
-4.34714e-09
3.92202e-06
-1.27328e-06
1.44653e-06
8.86977e-07
-5.29935e-06
3.94582e-08
4.51632e-09
1.25256e-07
-4.16633e-08
1.94887e-07
1.76682e-07
-6.07241e-07
1.67215e-07
-1.42201e-06
3.94441e-07
6.44854e-07
-8.63982e-07
3.4215e-06
-4.61797e-09
0.0636624
6.53559e-07
4.93656e-06
-1.9047e-06
1.76274e-06
9.99394e-07
-6.04707e-10
1.81486e-07
4.20644e-08
2.51463e-07
-1.32282e-07
1.11607e-07
3.08714e-07
-6.88735e-07
3.09516e-07
-2.13348e-06
4.60887e-07
1.21565e-06
-1.48678e-06
3.93096e-06
6.53345e-07
0.0593975
5.19493e-07
6.04605e-06
-2.43581e-06
2.65057e-06
2.505e-07
4.38544e-09
9.46175e-08
6.5944e-08
2.52865e-07
-1.8983e-07
3.61593e-07
5.52461e-07
-1.17294e-06
2.87825e-07
-2.43427e-06
2.67762e-07
1.13792e-06
-1.27301e-06
4.94712e-06
5.19192e-07
0.0556639
5.59931e-07
7.84205e-06
-3.35831e-06
-2.83896e-09
3.31622e-07
3.28678e-09
-3.43367e-08
1.39976e-07
4.99279e-07
-1.94606e-07
3.70067e-07
6.89289e-07
-1.26724e-06
-1.19629e-08
-3.48413e-06
9.46603e-07
1.45812e-06
-1.90422e-06
6.05928e-06
5.5887e-07
0.0523679
2.78714e-07
8.41587e-06
4.22779e-07
-5.7379e-10
1.24031e-07
1.73382e-08
-5.82279e-08
2.92669e-07
5.55446e-07
-3.28801e-07
8.20087e-07
6.07278e-07
-2.02374e-06
4.65879e-07
-4.30613e-06
8.87855e-07
1.7755e-06
-2.43693e-06
7.8581e-06
2.78844e-07
0.0494343
1.89588e-06
-6.11936e-09
5.24333e-07
3.56758e-09
8.73009e-08
7.63226e-08
-2.68528e-07
3.82212e-07
9.65134e-07
-7.01139e-07
7.96472e-07
1.27025e-06
-2.55e-06
2.08993e-07
-5.28214e-06
9.97564e-07
2.66356e-06
-3.35504e-06
8.43769e-06
1.89411e-06
0.0468078
