5.25708e-13
0.724892
0.820212
1.89948
2.21919
3.35686
3.63337
4.43092
5.45199
6.20927
6.85357
7.13964
8.64669
9.4002
10.1203
10.6631
11.6799
12.2836
12.9324
13.8554
15.5383
15.8772
16.4395
17.8526
18.0227
18.4413
19.1765
21.206
21.7173
21.7764
23.7595
24.0518
25.4598
25.6157
26.0809
27.094
28.0564
28.2493
30.5687
31.008
32.0849
32.5401
33.4083
33.6719
34.118
35.3887
37.4157
37.8914
39.1807
39.5549
39.7731
40.705
41.6581
41.9689
43.5371
43.9844
45.2188
46.7431
47.2977
47.6112
49.0917
49.7488
50.4585
52.1448
52.1576
52.3511
54.1717
54.8721
55.5216
55.6499
56.5909
58.9647
59.2273
59.5825
61.0118
61.9674
63.1702
63.6804
64.7012
65.7863
66.2286
66.6817
67.6479
68.7334
68.8367
69.8758
71.1118
72.4709
73.0568
73.284
75.1153
76.5318
77.0816
77.3707
77.7337
79.4339
80.2963
81.1805
82.0964
82.3493
84.1053
84.4101
85.0487
86.0844
86.893
86.9926
89.0148
89.3236
90.7333
91.3401
92.7815
94.1805
94.8232
94.9005
95.8118
96.5804
97.0067
98.3513
98.8337
99.1003
102.095
102.128
103.082
104.672
105.286
105.494
107.149
107.504
108.572
108.813
109.63
110.374
111.603
111.754
111.816
114.293
114.834
116.808
118.072
118.112
118.739
120.594
121.607
121.667
122.131
122.849
124.96
125.238
126.506
126.572
127.248
128.568
128.785
129.865
130.801
131.449
132.566
133.993
134.792
135.052
136.683
137.958
138.907
139.271
140.905
141.54
142.341
142.71
144.167
144.492
145.22
146.573
146.993
148.225
148.42
149.706
150.456
151.004
153.137
153.317
154.995
155.244
155.96
156.982
157.53
158.339
159.498
160.469
160.702
162.728
163.292
165.049
165.591
165.918
167.073
167.34
169.229
170.091
170.275
171.321
171.772
173.289
173.387
174.353
175.743
175.968
177.557
177.958
179.703
180.086
180.458
182.632
183.637
184.158
184.981
185.337
186.259
186.849
188.09
189.24
189.662
190.848
191.058
192.072
193.822
194.712
195.154
196.255
198.001
198.018
199.199
200.32
200.949
201.535
201.998
203.765
205.072
205.091
206.337
207.416
208.583
208.662
208.917
210.448
211.716
211.945
212.963
213.486
214.63
215.334
216.267
217.289
217.645
218.363
221.012
221.945
222.571
223.815
224.97
225.353
226.475
227.533
227.683
229.79
230.864
231.174
232.144
232.199
232.673
233.663
233.795
234.137
234.612
234.818
238.523
239.475
239.982
240.444
241.33
243.253
244.162
245.462
245.592
245.905
247.659
248.569
249.798
250.092
251.353
253.004
253.176
253.788
254.779
255.087
256.713
257.12
257.306
258.443
259.673
260.415
262.018
263.146
263.25
264.646
265.231
266.002
266.976
266.991
268.372
268.963
271.334
271.846
272.173
273.4
274.655
275.261
276.858
277.843
278.634
279.256
279.587
280.137
280.718
282.591
282.941
284.017
284.833
284.943
286.748
286.834
288.963
290.242
290.762
291.13
291.214
292.846
294.844
295.558
296.91
297.76
297.821
298.666
299.516
300.886
301.023
301.717
302.613
304.248
305.526
305.672
306.029
307.308
307.98
309.632
309.774
311.194
311.432
311.743
314.454
314.873
315.691
317.171
317.254
318.113
319.43
319.873
321.022
321.628
322.161
324.908
325.097
326.199
326.343
326.741
328.826
329.831
329.851
330.026
332.711
333.597
334.628
335.352
335.985
336.682
337.605
338.255
338.898
339.699
341.047
341.215
342.972
343.465
344.472
344.984
345.825
346.014
347.397
348.267
349.047
350.4
350.598
352.564
353.936
354.913
355.314
356.513
358.211
358.269
359.297
360.149
361.373
361.881
362.652
365.213
366.245
366.72
366.833
367.688
368.25
369.212
369.609
369.958
371.762
372.504
372.798
373.539
373.824
374.842
374.933
376.947
378.389
380.195
380.258
381.889
382.668
383.422
383.903
385.492
386.027
387.692
387.855
388.502
390.243
390.79
391.448
393.47
393.882
395.488
395.504
397.099
398.144
398.897
398.982
399.597
400.646
401.062
401.269
401.998
402.565
402.989
406.269
406.522
407.876
408.066
408.746
411.025
411.698
412.107
414.16
414.333
415.144
415.872
416.611
417.528
418.148
420.864
421.494
421.85
423.047
423.705
424.661
425.283
426.254
426.883
428.328
428.866
430.054
430.138
430.322
431.854
432.178
432.739
433.309
433.677
435.528
438.317
438.813
439.234
440.295
441.122
442.15
442.458
443.944
446.299
446.491
447.561
447.956
448.634
450.081
450.73
452.193
452.579
452.789
454.599
454.96
456.097
456.571
457.914
458.971
459.808
460.697
461.773
462.427
463.159
463.281
464.058
465.924
466.57
466.739
467.083
468.747
469.333
469.434
472.33
473.341
473.491
474.139
475.178
476.368
477.058
477.849
477.94
480.991
481.125
482.654
483.345
483.756
484.911
487.59
487.919
489.036
489.351
489.364
491.297
492.209
493.428
493.846
494.775
494.95
495.774
496.152
496.756
497.845
499.306
499.954
500.118
500.517
500.896
503.186
503.852
504.6
506.367
507.623
508.025
509.396
510.098
511.532
512.211
513.144
513.729
515.109
515.548
517.604
517.745
518.68
518.919
520.46
520.993
521.962
522.88
524.007
525.41
526.308
526.47
526.716
526.768
529.142
529.667
530.867
532.971
533.278
534.394
535.626
536.474
536.788
537.068
538.68
539.18
540.832
542.596
542.855
543.18
543.736
544.722
544.994
546.006
546.939
548.234
548.284
549.243
549.854
551.295
551.943
552.597
554.17
554.585
556.841
557.859
558.726
559.791
560.638
560.919
562.974
563.601
563.977
565.088
566.865
567.638
567.825
569.214
569.919
570.84
571.618
572.592
572.897
573.876
574.03
574.461
575.309
577.231
577.731
578.626
579.316
580.622
580.995
581.816
582.887
584.282
584.501
586.108
587.943
588.904
589.081
590.419
590.738
593.515
593.688
594.061
595.732
596.863
597.634
597.761
599.077
599.806
600.404
601.62
602.234
603.085
604.362
605.121
605.714
607.168
607.775
608.786
609.346
610.691
611.068
611.886
612.06
612.953
613.412
613.842
615.83
616.527
617.611
617.901
617.94
619.717
620.958
622.108
624.505
625.001
625.27
626.368
627.814
628.72
628.782
631.368
632.239
632.759
634.687
635.297
636.539
637.082
637.205
638.146
638.929
639.859
640.363
642.315
642.44
642.673
645.061
645.626
647.04
647.068
647.434
648.32
648.349
650.528
651.098
651.78
651.851
652.355
652.495
653.684
654.922
656.585
657.165
660.006
660.261
660.496
660.797
662.925
663.349
664.676
665.423
667.467
667.93
669.52
669.681
671.398
671.581
672.256
672.982
673.611
674.784
675.406
676.535
679
679.126
680.567
681.19
682.03
682.875
683.455
684.084
686.191
686.795
687.465
687.581
689.841
690.03
690.751
691.569
691.813
692.601
694.453
694.498
695.126
695.923
696.373
698.068
698.506
699
699.055
700.202
702.862
703.778
703.805
706.637
707.505
708.398
709.521
709.896
710.971
711.372
712.051
712.667
714.264
715.575
716.464
716.91
718.549
719.737
720.652
720.841
721.042
723.126
723.333
724.654
726.026
727.494
727.599
727.904
729.214
729.379
730.155
731.285
731.952
732.106
733.606
734.284
734.98
735.524
736.916
737.829
738.034
738.989
741.597
741.682
742.638
745.687
746.512
746.937
747.96
748.065
750.226
751.166
751.614
752.607
752.747
753.793
754.528
754.863
755.78
756.472
757.716
759.511
760.003
760.514
760.987
762.008
763.49
764.837
765.617
767.252
767.815
768.92
769.332
769.538
770.269
771.442
772.939
773.556
774.294
774.792
775.812
776.292
776.94
777.067
778.3
780.453
780.548
782.734
782.75
783.826
785.4
786.726
787.758
788.091
789.83
789.949
792.205
792.306
792.532
793.829
794.228
795.601
796.571
797.165
797.235
798.012
800.234
801.954
802.668
802.716
804.603
805.834
807.216
807.437
807.867
808.983
809.779
809.825
811.834
811.865
812.875
813.021
814.2
814.789
815.471
818.333
818.858
819.76
821.263
821.659
821.674
822.557
822.763
822.924
825.267
825.669
826.881
828.644
829.794
829.995
830.77
831.281
831.97
833.72
833.872
835.173
835.658
837.106
837.731
839.125
839.28
840.657
841.713
841.874
842.41
845.841
846.382
846.477
847.023
849.194
849.53
850.381
851.816
853.5
855.04
855.873
856.352
857.187
858.609
858.842
859.679
859.886
860.688
863.053
863.077
864.579
864.689
866.199
867.4
867.501
867.731
868.682
869.065
870.138
870.879
870.884
871.156
872.313
874.064
874.639
875.178
876.406
876.59
877.624
879.54
880.5
881.729
882.453
884.541
884.713
885.127
885.428
887.91
888.817
889.476
890.487
892.775
893.777
894.188
895.332
895.702
898.06
898.946
