2.762e-13
0.832616
0.850031
2.28145
2.34345
3.6436
4.30915
4.43828
6.80468
7.09604
7.10185
7.11691
10.0003
10.3415
11.1045
11.2479
12.2248
13.7498
14.1102
15.8191
16.0658
17.7257
18.2185
18.3254
18.3932
21.1968
21.5345
22.881
23.1638
24.5419
24.8456
25.7286
27.2746
27.6124
28.4099
28.4523
31.6178
32.1575
33.4425
33.913
34.2627
34.3627
34.4805
34.6567
39.3465
39.8435
40.3873
40.8996
41.5847
41.7211
42.963
43.3521
44.2121
46.6464
47.5923
48.5998
48.8518
49.5672
49.5957
52.4
53.0492
54.0252
54.5353
55.2395
55.839
57.5357
57.7495
58.3353
58.3798
61.804
62.5128
63.7379
63.974
65.6315
66.5927
66.9188
67.3166
67.7508
68.124
68.1424
70.627
72.3972
73.7748
74.7002
76.2363
76.6634
77.938
78.4276
79.0406
79.0996
80.2814
80.5507
81.1528
81.5113
85.5273
85.5758
87.14
87.6313
89.1646
89.3726
90.7182
90.8099
91.1772
92.0996
93.9093
95.1153
95.9181
96.373
98.2766
98.8912
99.2326
100.357
100.432
101.657
102.119
104.163
105.487
107.737
107.745
109.53
110.015
110.707
111.228
111.289
112
112.467
112.682
114.285
114.514
117.969
118.745
120.113
120.878
122.196
123.12
123.366
125.266
125.934
126.118
127.279
127.403
127.802
128.5
129.208
131.041
131.939
133.911
135.329
135.331
135.537
138.168
139.044
140.778
141.421
141.444
141.727
142.568
144.795
145.185
146.189
146.908
147.787
148.158
148.385
150.313
150.488
153.355
153.821
154.557
156.344
156.433
157.972
158.13
159.924
161.163
161.47
162.01
163.58
164.933
165.635
166.831
167.089
167.409
168.189
168.999
171.196
171.797
171.833
173.585
174.559
175.037
176.117
176.589
178.618
180.318
181.882
182.897
183.53
185.426
185.566
186.548
187.098
187.269
187.671
187.939
188.511
188.642
190.837
190.99
192.92
193.326
195.91
197.013
198.261
200.821
201.984
202.264
202.915
203.023
204.216
204.647
205.242
206.689
206.724
207.224
208.281
209.614
210.547
210.63
212.141
212.786
214.351
215.502
217.561
219.262
220.328
221.01
221.533
221.91
222.693
223.312
223.343
224.56
225.778
228.395
228.411
229.836
230.26
232.266
232.716
233.629
234.141
234.708
235.334
237.728
238.667
238.76
239.322
240.806
240.929
241.711
242.143
243.33
244.133
246.857
247.357
250.678
251.335
251.664
254.084
254.247
254.469
255.575
256.247
256.701
256.829
258.174
258.762
259.176
259.879
260.423
260.542
262.379
263.375
263.406
267.069
267.641
269.028
271.325
273.012
273.608
274.632
274.756
275.699
275.849
278.071
278.186
278.991
279.832
280.526
280.556
282.012
282.607
283.736
284.01
284.828
285.682
287.189
287.946
289.302
291.108
293.842
293.858
295.851
295.975
296.063
296.904
298.279
298.471
300.355
301.116
301.261
302.489
304.248
304.584
306.201
307.275
308.351
308.872
310.239
310.834
311.518
311.905
313.228
313.369
315.67
315.779
316.287
318.362
319.153
319.398
320.691
322.024
322.15
322.559
323.571
326.742
327.071
329.262
329.637
332.944
333.213
333.326
333.547
334.515
335.041
335.642
336.313
336.997
338.521
339.258
340.369
341.916
342.017
342.293
343.371
344.415
344.674
345.167
346.567
349.315
349.341
352.08
353.455
353.538
354.482
355.2
355.567
356.287
358.678
358.815
361.681
362.31
362.415
365.325
365.546
366.41
366.795
367.111
367.253
369.129
369.251
369.509
369.661
369.924
371.072
372.772
374.248
374.251
375.277
376.509
377.857
380.957
381.383
382.729
383.719
383.817
386.986
388.952
389.034
389.036
389.782
390.729
390.769
393.5
393.569
394.882
395.154
395.252
395.665
397.321
397.591
398.264
399.477
399.597
400.001
400.93
404.354
404.4
406.873
407.688
407.869
409.49
410.178
412.51
412.552
415.142
415.183
416.096
416.199
416.743
417.779
418.818
419.053
419.892
421.275
423.541
423.689
425.231
425.703
426.945
428.139
429.495
430.223
432.304
432.89
434.136
434.399
434.9
435.905
436.581
437.201
437.831
438.332
438.629
440.588
440.609
441.401
443.162
443.261
443.815
446.864
447.283
449.388
450.046
451.823
451.901
454.94
455.45
459.46
460.288
460.412
460.556
460.716
461.236
461.836
461.962
464.29
464.393
464.434
465.377
465.426
466.348
466.4
466.585
466.842
468.21
468.501
470.399
473.682
473.982
476.418
476.805
479.792
479.846
481.593
483.567
485.121
485.591
485.706
486.063
488.023
489.165
489.311
490.099
492.38
492.823
492.841
492.896
493.353
493.527
494.843
494.885
497.451
498.168
499.014
499.146
500.329
500.898
503.549
503.575
506.57
506.742
506.936
508.677
509.015
509.836
511.042
512.949
514.342
516.642
516.878
517.687
517.858
519.001
519.269
520.438
520.554
523.214
523.325
524.427
525.021
525.287
526.508
526.641
530.455
531.094
531.733
534.111
534.948
535.555
536.211
536.877
536.982
537.05
537.619
538.312
539.328
539.704
540.767
544.443
545.396
545.938
545.956
546.066
547.996
548.044
549.265
549.583
551.488
552.008
554.705
555.378
555.471
558.374
558.664
559.067
561.815
564.971
565.402
565.773
566.023
566.976
567.614
567.649
569.655
569.826
570.601
571.229
571.66
571.791
573.277
573.863
574.885
575.012
576.158
576.492
576.551
578.706
580.222
580.35
582.412
582.691
582.76
586.66
586.664
587.637
589.774
592.482
592.908
593.218
593.232
597.889
598.005
598.779
598.861
600.445
600.807
602.302
602.32
603.34
604.081
604.92
606.045
606.059
606.525
607.128
607.398
609.117
609.73
610.446
611.038
612.373
613.725
614.028
615.088
615.831
616.33
618.487
618.817
621.205
621.234
625.27
625.463
627.116
627.461
629.719
629.928
629.942
632.605
633.625
633.649
635.193
635.199
636.2
636.387
636.789
637.021
638.598
639.603
641.376
641.653
643.334
643.849
648.262
648.674
649.457
649.61
649.944
650.011
650.988
651.176
651.458
651.877
652.228
653.219
653.923
656.708
658.99
661.701
661.747
662.493
662.923
663.47
663.561
666.96
667.815
667.828
667.964
668.928
669.179
670.852
671.129
672.943
673.388
678.317
678.784
679.333
680.665
680.835
681.239
683.998
684.274
684.831
685.403
685.454
686.178
686.875
687.555
690.86
691.353
692.862
692.933
693.16
693.516
694.79
694.993
695.878
696.137
698.544
699.06
699.685
699.706
701.535
701.649
704.162
704.299
705.116
708.291
708.797
708.897
710.024
710.441
713.576
714.411
718.161
718.414
719.089
719.477
720.852
721.186
722.258
723.343
725.313
725.53
726.161
726.627
728.273
728.431
731.004
731.19
731.568
731.972
732.119
733.541
733.78
734.245
734.505
735.194
735.511
736.413
736.552
738.807
738.989
739.504
739.714
743.312
743.638
747.799
748.288
751.075
752.62
752.933
753.178
755.907
756.23
757.147
757.321
757.42
758.04
758.734
762.195
762.423
764.598
764.843
764.979
766.041
766.262
766.969
767.194
769.776
769.804
772.217
772.29
772.902
773.405
773.589
773.758
774.995
775.452
776.345
776.798
777.991
778.389
778.674
782.167
782.228
786.221
786.872
788.008
788.215
789.132
789.395
793.414
794.433
794.441
796.779
797.097
797.411
797.973
798.409
798.425
800.063
800.842
800.909
801.26
802.97
804.514
805.147
806.934
807.32
810.882
811.188
811.385
811.969
812.175
812.249
814.009
814.516
819.095
819.231
820.527
821.741
822.108
822.237
823.134
823.321
824.606
824.722
825.761
826.379
828.668
831.374
831.828
831.998
832.184
832.378
832.998
833.16
833.18
834.516
835.115
836.282
837.512
838.376
838.748
842.107
842.748
848.117
848.372
849.157
849.171
850.03
850.445
851.723
855.314
855.435
856.498
856.838
857.293
860.609
861.495
862.615
862.8
865.024
865.048
865.581
865.875
866.235
866.308
866.695
866.924
867.641
868.183
868.775
868.829
869.037
869.119
870.139
870.773
871.447
871.555
873.775
873.973
879.075
879.88
881.801
886.49
886.844
887.248
888.886
889.382
890.002
890.053
890.582
891.245
897.281
898.06
898.371
898.813
899.346
900.214
900.537
900.784
901.652
902.187
903.65
904.815
905.425
905.577
905.862
906.697
907.247
907.298
907.598
908.007
909.663
910.296
912.127
912.224
912.691
914.824
915.352
916.246
917.392
920.868
921.774
923.801
923.885
925.491
925.96
929.991
930.177
931.171
931.321
932.955
934.161
934.323
934.72
935.751
936.237
936.666
936.869
937.842
938.297
941.415
942.75
942.828
943.938
944.088
944.544
944.91
947.964
948.269
948.785
949.457
950.119
951.953
952.281
957.434
958.031
959.144
959.264
961.125
962.403
963.575
963.654
964.373
964.688
964.805
