6.30098e-13
0.691228
0.719422
1.65824
2.32134
2.83737
3.71378
3.96228
5.16843
5.99079
6.53623
6.81201
7.79577
8.46691
9.74141
10.5583
10.9501
11.3754
12.3993
12.5144
13.9383
15.4997
15.8171
16.4788
16.7408
17.5111
18.2367
19.0307
20.5415
21.3786
21.8966
22.5087
23.5837
23.9043
24.9547
25.2872
26.6138
26.8471
28.3367
28.6927
29.8053
30.8867
31.6985
32.1374
32.9658
33.0336
34.3122
35.5777
35.8466
36.2337
38.2101
38.9947
39.4776
40.1602
40.1727
42.1394
43.3447
43.7154
44.2927
44.3599
44.7699
46.7043
47.6226
47.928
48.6488
49.6376
51.6481
52.0612
52.9152
53.6519
53.9903
54.1967
55.1892
55.9421
56.1479
57.1583
59.5507
59.694
61.5661
61.8121
62.1494
62.8939
63.4432
65.2114
65.2987
65.8175
66.9425
67.4546
67.6235
69.36
71.3056
71.8861
72.7373
73.0882
73.239
73.3358
74.6982
76.2554
76.6692
78.1954
78.7311
79.2224
80.6699
81.2317
81.8042
83.2575
83.4608
84.0242
85.0769
86.0351
86.7691
86.8437
87.6102
89.1544
90.6438
91.1151
92.0433
93.4554
93.6553
94.8453
95.401
95.5314
96.7375
97.924
98.2509
98.7664
99.0444
100.971
101.659
102.16
103.545
103.831
105.497
105.979
107.303
107.533
109.164
109.339
110.83
110.855
112.116
112.248
112.885
113.556
113.882
116.495
116.529
118.091
118.289
119.209
120.163
120.366
120.899
123.293
124.481
124.535
124.995
126.307
126.496
127.116
127.887
129.053
129.556
131.373
132.034
132.645
133.852
134.066
135.236
135.915
136.385
137.489
138.302
139.439
139.577
141.197
141.232
143.118
143.498
143.78
144.642
146.258
146.634
148.231
148.831
150.431
150.611
150.66
151.839
152.669
153.409
154.137
155.25
155.762
155.982
156.867
157.865
159.563
160.373
160.752
162.278
162.974
163.801
163.93
165.989
166.512
166.785
168.242
168.875
169.032
171.117
172.062
172.11
172.427
172.646
173.665
174.233
176.434
177.13
177.653
178.501
179.324
179.835
182.008
182.329
182.37
183.549
184.21
185.549
186.415
187.764
187.924
189.603
189.832
189.846
192.099
192.675
193.039
193.266
194.663
195.372
195.809
197.069
197.604
198.203
199.077
200.415
200.77
202.223
203.397
203.984
205.249
206.212
206.549
207.485
208.085
209.049
210.178
210.503
211.961
213.384
213.402
213.929
214.436
215.058
215.844
216.53
217.399
219.666
219.996
221.258
221.809
222.428
223.201
224.206
225.732
225.886
226.681
226.973
228.608
229.123
230.479
231.249
231.847
231.875
232.572
232.773
234.887
236.401
236.851
237.222
239.635
240.102
241.119
241.317
242.154
242.461
244.07
244.822
245.436
246.002
246.838
247.951
248.211
248.339
249.827
250.409
250.949
252.353
252.365
255.276
255.815
256.405
256.807
258.798
259.657
260.041
260.066
261.666
262.587
263.516
264.747
265.485
266.021
266.913
267.512
268.089
268.321
268.335
269.376
270.933
271.043
273.708
273.752
273.885
274.855
276.703
278.038
279.188
279.591
280.332
280.966
282.152
282.257
282.639
284.647
285.144
285.944
287.065
287.678
288.197
289.433
290.179
290.519
290.998
292.83
293.314
294.342
295.159
296.589
296.611
297.933
298.421
299.341
300.197
300.439
301.354
303.784
304.209
304.323
305.218
305.867
307.623
307.894
308.801
309.494
310.524
311.202
311.373
312.33
313.61
315.309
315.352
316.475
317.886
318.553
318.957
319.588
320.295
321.471
321.662
322.901
324.576
325.589
326.34
326.651
327.572
328.286
328.692
329.321
330.373
331.975
332.962
333.14
333.598
334.837
337.028
337.476
337.729
338.125
338.479
340.227
340.392
341.02
342.649
343.104
343.749
344.467
346.093
346.578
348.158
349.918
350.262
351.58
352.529
352.553
353.101
353.432
354.437
355.207
355.91
356.946
357.701
358.743
359.569
360.794
361.084
362.008
363.159
363.962
364.82
365.088
366.189
366.741
367.353
368.447
370.047
370.373
371.478
372.17
373.234
374.367
375.748
376.647
377.235
377.651
379.202
380.227
380.264
380.7
381.463
383.076
383.414
384.185
384.556
385.732
386.552
388.283
388.824
389.512
389.983
390.465
391.919
392.332
394.483
394.518
394.848
396.256
397.419
398.042
398.057
400.903
400.952
401.444
402.074
402.58
403.911
404.101
405.349
405.591
407.097
407.655
409.036
410.723
410.956
411.344
412.296
414.164
415.262
415.541
416.237
417.101
417.304
417.317
418.296
421.001
421.49
421.958
422.555
424.521
425.116
425.586
426.256
426.415
427.276
427.657
428.472
430.499
431.205
431.713
432.056
432.574
434.531
435.03
436.721
436.972
438.19
438.988
440.298
440.468
441.697
442.277
442.882
444.224
444.598
445.589
446.538
448.186
448.232
450.439
450.461
450.945
451.373
452.217
453.065
454.319
454.689
456.362
456.655
457.919
458.556
459.546
459.959
460.782
460.946
463.134
463.693
464.85
465.288
466.476
467.137
467.256
468.59
468.732
470.354
470.697
472.197
473.017
473.153
473.519
475.419
476.029
476.955
477.463
479.007
479.847
480.237
481.573
482.882
483.752
485.412
485.776
486.22
487.395
488.777
489.254
490.417
490.716
491.14
492.392
492.951
493.369
494.135
494.143
494.53
496.639
497.966
498.239
498.619
499.434
500.925
501.08
502.237
503.173
504.015
504.678
505.889
506.531
507.456
507.931
508.96
510.309
511.118
513.067
513.684
514.979
515.112
516.229
517.925
519.326
519.472
520.501
521.619
522.048
522.273
522.713
523.514
523.724
524.428
525.083
525.859
526.377
528.05
528.51
529.888
530.782
531.783
532.556
533.825
534.143
535.137
535.797
536.699
536.763
538.414
538.938
540.201
541.091
542.515
542.959
543.983
545.872
546.305
546.392
546.876
548.281
549.58
550.067
550.937
551.391
552.407
553.827
553.889
554.476
555.567
556.551
558.522
559.131
559.746
560.518
560.875
561.641
562.092
565.035
565.781
565.929
566.235
566.62
567.824
567.951
568.575
569.49
571.301
572.206
573.566
573.746
574.479
575.982
576.76
576.813
578.576
579.081
579.334
580.006
581.289
581.673
581.677
582.369
583.012
585.056
587.085
588.263
588.796
589.038
590.034
591.062
592.201
592.924
594.975
595.26
596.472
597.35
598.347
598.42
598.789
599.657
600.689
600.805
602.21
602.919
604.358
605.229
605.548
606.78
606.96
608.87
608.917
609.611
610.158
610.823
611.815
612.601
613.341
614.312
614.504
616.098
616.191
617.98
618.297
620.11
621.069
621.48
623.299
623.533
624.164
624.666
624.884
625.583
628.799
629.056
629.523
631.194
631.631
632.42
633.408
634.577
635.549
636.157
637.768
637.918
638.762
640.34
640.442
641.578
641.791
641.812
643.528
643.811
643.973
645.574
646.379
648.26
648.471
649.068
650.769
650.823
651.863
651.988
652.573
653.863
653.897
655.603
656.447
656.906
657.467
658.577
658.749
660.179
662.23
662.274
663.482
664.197
665.437
666.147
667.198
669.108
669.548
671.114
671.275
672.975
673.399
673.59
674.937
675.271
675.389
677.113
677.318
679.975
680.013
681.531
682.336
682.494
683.434
683.762
684.067
685.566
685.687
686.902
687.739
688.494
688.735
689.95
690.703
691.593
692.225
692.281
693.517
694.563
695.791
696.735
698.099
698.707
699.573
699.662
702.373
702.586
702.676
703.55
704.582
706.025
706.661
706.864
708.769
708.933
711.639
712.584
712.862
714.237
714.279
714.713
714.843
715.949
716.741
718.062
718.779
719.151
720.946
721.158
722.868
724.321
724.551
725.603
725.775
726.918
727.77
728.47
728.49
729.42
730.854
732.215
733.2
733.504
733.926
734.529
735.051
736.851
737.385
737.48
738.938
740.021
740.086
740.557
742.677
743.088
743.863
744.347
746.351
746.548
747.575
748.838
750.198
750.696
751.3
752.303
752.795
754.145
754.946
756.286
756.815
757.288
757.872
759.859
759.949
761.076
762.474
762.987
763.511
765.385
765.976
766.695
769.1
769.14
769.342
770.103
770.275
772.077
772.861
773.286
773.455
774.38
774.443
776.164
776.787
777.581
778.347
778.682
779.756
781.362
781.367
782.954
783.464
784.005
784.637
785.978
787.215
788.366
789.091
789.795
790.54
791.351
791.47
793.964
794.372
796.243
796.786
797.154
798.271
798.914
799.85
800.09
802.675
802.758
803.742
804.084
804.258
805.059
805.164
807.769
807.794
810.162
810.307
810.702
812.673
813.452
814.414
815.267
816.045
817.361
817.99
818.22
818.491
819.19
820.497
820.609
821.398
823.73
823.886
824.5
824.9
825.488
825.6
826.539
826.566
829.799
829.892
830.727
832.204
832.734
832.83
835.761
836.837
837.218
837.727
838.02
838.84
839.403
839.459
839.939
842.704
842.812
