1.56675
2.9274e-06
-0.0319151
5.85397e-07
-0.00243251
1.28727e-07
-0.00029946
2.90298e-08
-4.49353e-05
6.09966e-09
-7.51992e-06
1.70491e-10
-1.35368e-06
3.32013e-09
-2.65333e-07
6.21924e-09
-5.45463e-08
-7.96095e-09
-1.636e-08
-1.07748e-09
2.9274e-06
0.968471
5.71797e-07
-0.00182142
1.26434e-07
-0.000240064
2.82592e-08
-3.69889e-05
4.80464e-09
-6.28698e-06
8.80058e-10
-1.11635e-06
-2.11152e-09
-1.99405e-07
-1.91543e-08
-4.00277e-08
1.76636e-08
-3.26075e-08
2.0843e-08
7.48655e-09
-0.0319151
5.71797e-07
0.426988
1.17567e-07
-0.000218959
3.02575e-08
-3.28735e-05
2.47944e-09
-5.58182e-06
9.53289e-09
-1.01741e-06
-6.35718e-09
-1.17174e-07
-2.11537e-08
6.76312e-08
-5.52984e-08
1.71485e-08
6.0788e-08
-1.22574e-07
6.40242e-08
5.85397e-07
-0.00182142
1.17567e-07
0.279939
2.85144e-08
-3.26768e-05
-1.57207e-09
-5.29091e-06
2.03286e-08
-1.11247e-06
1.83651e-08
-2.97622e-07
-4.3662e-08
1.73714e-07
-3.62353e-09
2.3809e-07
-1.21657e-07
6.5693e-09
7.14735e-08
-2.83596e-07
-0.0024325
1.26434e-07
-0.000218958
2.85144e-08
0.208663
-1.86921e-09
-4.91307e-06
5.98578e-09
-7.00033e-07
3.51715e-08
-5.54546e-07
-1.05787e-09
-1.99992e-07
-2.51173e-08
3.85666e-07
1.64057e-08
3.74837e-07
-3.24649e-07
-3.67317e-09
2.55513e-07
1.28727e-07
-0.000240061
3.02574e-08
-3.2676e-05
-1.86984e-09
0.166427
2.46699e-08
-6.21615e-07
-1.97808e-08
6.85205e-08
1.68606e-08
-6.24886e-07
7.71636e-08
-2.80451e-07
-2.79153e-08
5.49477e-07
-9.52953e-08
5.88185e-07
-3.40822e-07
-6.92239e-08
-0.000299452
2.82593e-08
-3.28712e-05
-1.57378e-09
-4.91208e-06
2.46671e-08
0.138456
3.13381e-08
1.84611e-07
-1.14793e-07
4.26122e-07
1.27633e-07
-9.40942e-07
1.33952e-07
-5.2006e-07
-2.18992e-07
8.25292e-07
1.17881e-07
7.97956e-07
-3.69188e-07
2.90294e-08
-3.69788e-05
2.4792e-09
-5.28818e-06
5.97923e-09
-6.20272e-07
3.13324e-08
0.118552
-8.02831e-09
6.17567e-07
-9.87432e-08
6.69115e-07
2.14301e-07
-1.51268e-06
-2.34089e-08
-7.20421e-07
-2.25547e-08
1.10902e-06
3.64647e-07
1.14526e-06
-4.49161e-05
4.80466e-09
-5.57494e-06
2.0326e-08
-6.96771e-07
-1.97905e-08
1.86397e-07
-8.03168e-09
0.10366
1.08135e-07
9.68532e-07
-1.57909e-07
8.04237e-07
6.75409e-08
-2.11743e-06
2.86564e-07
-1.01348e-06
1.7444e-07
1.57588e-06
-1.60205e-07
6.09945e-09
-6.26079e-06
9.53375e-09
-1.10516e-06
3.5172e-08
7.24871e-08
-1.14784e-07
6.19917e-07
1.08101e-07
0.0920942
1.86988e-07
1.24678e-06
-5.19537e-07
1.09694e-06
4.56816e-07
-2.92246e-06
5.91256e-07
-1.19799e-06
-5.38249e-07
2.18834e-06
-7.47568e-06
8.7994e-10
-1.00106e-06
1.8374e-08
-5.46543e-07
1.69026e-08
4.30855e-07
-9.8793e-08
9.71592e-07
1.86919e-07
0.0828497
2.01043e-09
1.74596e-06
-3.58245e-07
1.37592e-06
8.42286e-07
-3.71565e-06
-1.08347e-07
-1.32109e-06
3.65669e-08
1.70921e-10
-1.05903e-06
-6.35937e-09
-2.81531e-07
-9.91595e-10
-6.1581e-07
1.2761e-07
6.74688e-07
-1.58e-07
1.25068e-06
1.9431e-09
0.0752901
4.1591e-07
2.29383e-06
-2.65429e-07
1.88076e-06
1.57271e-07
-4.56181e-06
6.17582e-07
-2.38366e-06
-1.26387e-06
-2.11357e-09
-8.37972e-08
-4.36301e-08
-1.83547e-07
7.71778e-08
-9.30665e-07
2.14246e-07
8.10542e-07
-5.19516e-07
1.7509e-06
4.15765e-07
0.0689916
8.18119e-07
3.15038e-06
-1.3569e-06
2.54947e-06
1.01389e-06
-6.5392e-06
1.13915e-06
3.31942e-09
-8.93556e-08
-2.11356e-08
2.04644e-07
-2.51625e-08
-2.62859e-07
1.3396e-07
-1.50121e-06
6.77026e-08
1.10389e-06
-3.58272e-07
2.30004e-06
8.1771e-07
0.0636619
7.43656e-08
4.25983e-06
-8.97495e-07
2.25921e-06
1.65307e-06
-7.15775e-06
-1.01807e-07
-1.9143e-08
1.28461e-07
-3.66369e-09
4.157e-07
-2.80248e-08
-5.0136e-07
-2.30776e-08
-2.10478e-06
4.56957e-07
1.38329e-06
-2.65943e-07
3.15864e-06
7.40538e-08
0.0590924
9.87004e-07
4.47759e-06
-7.35673e-07
3.62515e-06
6.44998e-07
6.21672e-09
1.51649e-07
-5.52857e-08
2.92003e-07
1.62934e-08
5.79984e-07
-2.18834e-07
-7.00593e-07
2.86944e-07
-2.90876e-06
8.41716e-07
1.88918e-06
-1.35669e-06
4.27049e-06
9.86313e-07
0.055129
1.66605e-06
6.50225e-06
-2.33798e-06
3.93286e-06
2.19216e-07
1.76673e-08
1.18994e-07
-1.21638e-07
4.25019e-07
-9.5165e-08
8.56375e-07
-2.247e-08
-9.92862e-07
5.90818e-07
-3.69979e-06
1.5793e-07
2.55848e-06
-8.9776e-07
4.4904e-06
1.66486e-06
0.05166
6.29191e-07
7.55606e-06
-3.29594e-06
-7.95249e-09
2.77375e-07
6.07595e-08
9.36029e-08
-3.24288e-07
6.37398e-07
1.17907e-07
1.14053e-06
1.73389e-07
-1.17546e-06
-1.07026e-07
-4.54408e-06
1.01385e-06
2.26689e-06
-7.36477e-07
6.51917e-06
6.27494e-07
0.048595
3.27151e-07
9.04803e-06
4.12892e-07
2.0803e-08
3.71088e-08
7.16209e-08
7.47633e-08
-3.40308e-07
8.46419e-07
3.63413e-07
1.60897e-06
-5.37487e-07
-1.29734e-06
6.18161e-07
-6.52188e-06
1.65221e-06
3.63355e-06
-2.33903e-06
7.57998e-06
3.25889e-07
0.0458675
2.55835e-06
-1.07701e-09
4.8027e-07
6.39775e-08
-1.50802e-07
2.55652e-07
5.33242e-09
-3.69509e-07
1.19473e-06
-1.5956e-07
2.22219e-06
3.60959e-08
-2.36205e-06
1.13886e-06
-7.13733e-06
6.43771e-07
3.94547e-06
-3.29399e-06
9.07458e-06
2.55492e-06
0.0434237
