4.72585e-13
0.845607
0.847643
2.32554
2.33272
3.66763
4.39771
4.41404
7.03529
7.07205
7.09991
7.10662
10.2428
10.295
11.222
11.2441
12.2942
13.9954
14.0749
16.026
16.0628
18.1545
18.2185
18.318
18.4058
21.4854
21.5435
23.1173
23.2834
24.7965
24.8496
25.8494
27.5783
27.6709
28.4934
28.7039
32.0961
32.1854
34.0163
34.2601
34.3361
34.4325
34.5251
34.6646
40.0206
40.2117
40.7615
41.1622
41.722
41.8194
43.2685
43.3681
44.3325
47.5639
48.1956
48.813
48.9159
49.6743
49.8219
52.9905
53.1913
54.7638
55.2358
55.3906
55.7629
57.959
58.2865
58.3578
58.4339
62.6725
63.7189
63.7381
63.8625
66.4784
66.816
67.2941
67.6486
67.7877
68.1731
68.3144
71.375
72.492
74.6539
74.9416
76.7881
77.4615
78.3832
78.9907
79.0606
79.1172
80.3498
81.1468
81.2508
81.6515
86.015
86.8488
87.3489
87.8678
89.2021
90.308
90.565
91.3395
92.0008
92.1314
94.7029
95.1975
95.9852
97.4042
98.8631
99.1787
99.4323
100.181
101.553
102.102
102.262
105.212
105.85
107.539
109.973
110.107
110.444
110.916
111.994
112.029
112.294
112.598
112.686
114.461
114.843
118.095
120.265
120.734
122.606
122.809
123.565
125.012
125.467
126.104
126.599
127.344
128.049
128.33
128.515
129.329
131.157
135.288
135.289
135.355
135.362
135.426
138.804
141.168
141.346
141.672
141.756
141.874
143.397
145.763
146.001
147.664
147.732
147.779
148.376
148.679
150.554
151.157
152.886
156.312
156.339
156.389
157.205
158.582
158.866
160.507
161.741
162.572
163.32
163.733
164.998
166.771
167.058
167.62
167.724
168.705
171.364
171.624
172.25
172.527
173.871
175.363
176.19
176.517
177.039
179.062
182.42
182.776
184.752
184.996
186.491
186.589
187.019
187.118
187.758
188.282
188.504
188.638
188.758
190.745
192.076
193.335
194.491
195.451
201.816
201.836
202.153
202.411
202.555
203.005
203.295
204.601
205.895
206.277
206.937
207.179
207.683
208.858
209.967
210.477
211.419
213.478
213.876
217.088
218.381
220.157
220.471
221.009
221.38
221.921
222.387
223.661
223.706
223.861
225.418
228.103
228.476
232.161
232.181
232.537
232.961
233.15
233.844
234.171
235.406
237.622
238.144
240.12
240.242
240.594
241.223
242.067
242.385
242.724
243.689
248.511
249.442
249.985
250.86
253.492
253.789
255.083
255.246
255.684
256.167
257.895
257.996
258.107
258.649
259.299
259.886
260.307
261.09
261.669
264.22
264.297
265.007
267.312
272.578
272.802
274.339
274.401
274.51
274.906
275.762
276.45
278.727
278.938
280.296
280.406
280.732
280.903
282.026
282.571
282.776
283.993
284.784
285.481
286.411
287.32
293.587
293.716
294.189
294.655
295.877
295.995
296.194
296.669
299.541
300.264
301.01
301.168
301.361
302.335
303.093
304.014
308.175
308.408
309.286
309.597
311.197
311.411
312.29
313.156
313.241
313.444
314.206
317.594
318.162
318.548
319.218
319.879
320.532
321.889
322.335
323.055
323.905
328.173
328.471
332.705
332.739
332.844
333.128
333.858
334.023
334.3
334.576
336.183
337.414
338.344
338.903
340.35
340.68
341.553
341.981
343.385
343.742
344.579
344.87
345.388
346.171
352.809
352.993
353.966
354.068
354.825
354.832
355.329
356.503
357.079
358.159
361.15
361.517
365.216
365.293
365.495
365.78
366.222
366.622
368.356
368.571
369.241
369.451
369.972
370.132
370.628
373.454
373.606
374.882
375.766
376.503
377.714
380.468
380.82
381.985
382.472
388.209
388.346
388.718
388.94
389.537
389.865
391.957
392.148
394.574
394.577
394.8
394.829
395.121
395.78
396.06
397.08
398.683
398.76
398.872
399.833
400.875
401.608
407.562
407.603
407.675
408.175
411.534
411.761
414.5
414.578
415.559
415.761
416.188
416.24
416.578
416.848
417.01
418.559
421.453
421.842
422.828
423.211
424.163
424.676
429.229
429.468
432.245
432.409
433.321
433.808
433.989
435.455
435.491
435.581
435.73
436.788
437.589
438.849
439.354
440.136
440.5
441.059
441.868
444.806
445.177
446.008
446.52
450.278
450.577
454.221
454.43
458.446
458.808
460.021
460.109
460.325
460.481
460.727
461.016
461.731
462.408
464.184
464.259
464.361
464.819
466.365
466.371
466.394
466.463
466.545
467.473
468.743
469.556
475.716
475.938
478.413
478.571
480.683
481.43
485.003
485.009
485.059
485.067
485.266
486.192
488.302
488.625
492.146
492.249
492.647
492.755
493.228
493.233
493.332
493.407
493.494
494.57
497.211
497.497
500.224
500.413
501.327
503.4
504.178
506.138
506.377
507.229
507.529
509.147
509.568
510.917
511.379
516.501
516.506
516.54
516.91
518.347
518.566
519.396
519.685
520.858
521.141
523.479
523.653
524.701
524.868
526.669
527.588
530.801
531.047
533.702
533.92
534.841
535.067
536.716
536.756
536.847
536.968
537.229
537.24
537.287
538.34
544.021
544.212
545.425
545.624
546.743
546.943
548.726
548.804
549.035
549.169
550.448
551.531
554.159
554.49
557.985
558.126
558.798
559.279
564.204
564.365
565.119
565.349
566.876
567.076
569.09
569.226
570.168
570.189
570.28
570.676
573.191
573.293
574.2
574.529
574.546
574.818
574.871
575.055
576.324
577.884
578.352
581.664
581.91
584.469
584.707
585.531
585.908
591.752
591.816
591.991
592.332
597.095
597.18
597.702
597.833
599.532
599.757
600.169
600.599
601.614
601.927
603.326
603.594
605.193
605.388
606.253
606.484
607.343
607.64
610.293
610.35
610.662
611.097
612.29
612.626
615.305
615.526
617.586
617.787
619.896
620.103
624.378
624.387
624.982
625.556
626.719
627.051
629.219
629.462
632.527
632.721
634.836
634.981
635.951
635.965
636.042
636.319
637.363
637.369
637.526
638.188
643.074
643.27
648.14
648.219
648.631
648.731
649.651
649.71
650.275
650.29
650.686
650.924
651.159
651.609
652.232
652.564
653.384
661.371
661.492
662.158
662.217
662.364
662.68
664.746
664.989
667.546
667.687
668.185
668.329
668.764
669.062
672.455
672.646
676.956
677.201
678.038
678.344
680.631
680.735
681.098
681.436
683.721
683.905
684.716
684.949
686.719
686.929
690.768
690.858
692.56
692.587
692.734
692.753
692.853
693.294
694.213
694.495
698.336
698.452
699.554
699.613
699.7
699.963
703.348
703.382
703.894
704.524
707.929
708.134
709.714
709.81
710.238
710.59
717.825
717.943
718.927
719.065
720.476
720.571
721.036
721.271
723.867
724.013
726.053
726.187
727.709
727.829
731.061
731.123
731.188
731.334
731.627
731.972
732.532
732.81
734.156
734.335
735.185
735.209
735.545
738.464
738.516
738.674
738.949
739.948
740.278
747.672
747.811
750.009
750.14
752.586
752.739
755.534
755.637
756.948
757.052
757.951
758.053
759.19
759.601
761.88
762.03
764.21
764.308
765.976
766.002
766.13
766.373
769.607
769.68
770.28
770.414
772.228
772.324
772.813
772.995
774.664
774.818
776.27
776.379
778.229
778.385
779.565
779.673
786.367
786.442
787.507
787.567
787.904
787.938
788.105
788.612
794.139
794.234
796.69
796.774
797.462
797.512
797.73
797.913
800.06
800.152
801.093
801.132
801.394
801.616
806.943
807.059
809.602
809.704
811.123
811.173
811.349
811.532
814.063
814.174
816.577
816.855
819.138
819.247
820.747
820.858
822.158
822.308
823.259
824.177
824.28
825.794
825.924
831.368
831.381
831.994
832.046
832.185
832.22
832.58
832.7
833.696
833.8
834.81
834.934
838.244
838.317
840.229
840.357
846.058
846.27
848.49
848.568
848.728
848.856
850.156
850.281
854.269
854.343
856.657
856.774
860.971
861.034
862.772
862.846
864.559
864.661
865.863
865.876
865.942
866.041
866.581
866.671
866.851
866.919
868.322
868.377
868.773
868.916
870.213
870.244
870.563
870.665
871.44
871.531
876.055
876.304
879.454
879.556
886.758
886.861
888.393
888.457
889.899
889.962
890.788
890.885
897.186
897.234
898.437
898.496
900.011
900.039
900.126
900.172
901.039
901.097
903.136
903.23
905.113
905.145
906.189
906.263
906.547
906.701
906.824
906.949
907.136
907.3
909.843
909.918
912.222
912.266
915.219
915.34
916.308
921.413
921.484
923.143
923.185
925.534
925.55
930.33
930.344
930.395
930.429
933.838
933.876
934.214
934.275
935.383
935.52
936.591
936.6
936.792
936.841
937.522
937.867
942.56
942.6
942.931
942.962
944.102
944.149
948.395
948.429
949.808
949.854
952.247
952.33
958.366
958.412
958.5
958.529
962.403
962.459
964.089
964.117
964.128
964.176
964.37
964.477
964.943
964.982
968.211
968.284
968.908
